<?xml version="1.0" encoding="utf-8"?>
<!-- Generator: Adobe Illustrator 24.3.0, SVG Export Plug-In . SVG Version: 6.00 Build 0)  -->
<svg version="1.1" id="Layer_1" xmlns="http://www.w3.org/2000/svg" xmlns:xlink="http://www.w3.org/1999/xlink" x="0px" y="0px"
	 viewBox="0 0 850.4 850.4" style="enable-background:new 0 0 850.4 850.4;" xml:space="preserve">
<style type="text/css">
	.st0{fill:#1D1D1B;}
</style>
<path class="st0" d="M515.2,178.5v334.5h-61.9c11.5-14.6,18.7-33.1,18.9-53.1l0,0V335.4c0-32.4-26.5-58.9-58.9-58.9
	s-58.9,26.5-58.9,58.9v99h33.8v-99c0-13.9,11.2-25.2,25.2-25.2s25.2,11.2,25.2,25.2v122.9c0,30.1-24.5,54.7-54.7,54.7h-82.4v33.8
	h247.5V178.5L515.2,178.5L515.2,178.5z"/>
</svg>
