<?xml version="1.0" encoding="utf-8"?>
<!-- Generator: Adobe Illustrator 24.3.0, SVG Export Plug-In . SVG Version: 6.00 Build 0)  -->
<svg version="1.1" id="Layer_1" xmlns="http://www.w3.org/2000/svg" xmlns:xlink="http://www.w3.org/1999/xlink" x="0px" y="0px"
	 viewBox="0 0 850.4 850.4" style="enable-background:new 0 0 850.4 850.4;" xml:space="preserve">
<style type="text/css">
	.st0{fill:#1D1D1B;}
</style>
<path class="st0" d="M620.3,243.7c-1.4-47.5-40.5-85.7-88.2-85.7c-48.8,0-88.4,39.6-88.4,88.4v267.3h-61.9
	c11.5-14.6,18.7-33.1,18.9-53.1l0,0V336.1c0-32.4-26.6-59-59-59s-58.9,26.6-58.9,59v99h33.8v-99c0-14,11.2-25.2,25.2-25.2
	c14,0,25.2,11.2,25.2,25.2V459c0,30.1-24.5,54.7-54.7,54.7h-82.3v33.8h247.5V246.1c0-30.1,24.5-54.7,54.7-54.7
	c30.2,0,54.7,24.5,54.7,54.7V270v0.5c-7.7-3.6-16.2-5.6-25.2-5.6c-32.4,0-58.9,26.5-58.9,59v168.1c0,32.4,26.6,58.9,58.9,58.9
	c32.4,0,59-26.5,59-58.9L620.3,243.7L620.3,243.7z M586.5,491.8c0,13.9-11.2,25.2-25.2,25.2s-25.2-11.2-25.2-25.2V323.8
	c0-14,11.2-25.2,25.2-25.2s25.2,11.2,25.2,25.2V491.8z"/>
</svg>
