<?xml version="1.0" encoding="utf-8"?>
<!-- Generator: Adobe Illustrator 24.3.0, SVG Export Plug-In . SVG Version: 6.00 Build 0)  -->
<svg version="1.1" id="Layer_1" xmlns="http://www.w3.org/2000/svg" xmlns:xlink="http://www.w3.org/1999/xlink" x="0px" y="0px"
	 viewBox="0 0 850.4 850.4" style="enable-background:new 0 0 850.4 850.4;" xml:space="preserve">
<style type="text/css">
	.st0{fill:#1D1D1B;}
</style>
<path class="st0" d="M781.7,265.8c0-60.1-48.8-109.1-109.1-109.1c-14,0-27.2,2.7-39.4,7.4c-11.9-4.7-25-7.4-38.7-7.4
	c-34.7,0-65.5,16.9-84.8,42.8c-15.5-25.7-43.6-42.8-75.6-42.8c-48.8,0-88.4,39.6-88.4,88.4v197.1c0,35.3-20,67.7-43,69.8H127.9
	c-13.9,0-25.4-11.5-25.4-25.4c0-14,11.5-25.4,25.4-25.4h99.7c54.7,0,99.2-44.6,99.2-99.2l0,0V217.4c0-33.8-27.4-61.2-61.2-61.2
	c-20.9,0-39.6,10.6-50.6,26.8c-15.5-16.4-37.3-26.8-61.6-26.8c-46.8,0-84.8,38-84.8,84.8v115.2c0,31.7,25.9,57.6,57.6,57.6
	s57.6-25.9,57.6-57.6v-51.8c0-31.7-25.9-57.6-57.6-57.6c-8.6,0-16.7,1.8-23.8,5.2v-11c0-28.1,22.9-51.1,51.1-51.1
	s51.1,22.9,51.1,51.1v167.4h33.8v-191c0-15.1,12.4-27.4,27.4-27.4c15.1,0,27.4,12.4,27.4,27.4c0,0,0,142.9,0,144.2
	c0,36.2-29.5,65.5-65.5,65.5h-99.7c-32.6,0-59.2,26.5-59.2,59.2c0,30.8,23.6,56,53.6,59v0.2h184.5v-0.2
	c17.5-1.8,33.8-11.7,46.4-26.5c10.1,18.2,29.5,30.6,51.5,30.6c32.4,0,58.9-26.5,58.9-58.9V338.5c0-32.4-26.6-58.9-58.9-58.9
	c-9,0-17.6,2-25.2,5.6v-39.8c0-30.1,24.5-54.7,54.7-54.7s54.7,24.5,54.7,54.7v301.1h33.8V262.9c0-39.6,32-71.8,71.3-72
	c-18.7,19.6-30.1,46.1-30.1,75.4v219.4h0.2c2,36,32,64.6,68.2,64.6c36.5,0,66.1-28.6,68.2-64.6h0.2V262.9c0-27.9-10.8-53.1-28.3-72
	c0.2,0,0.5,0,0.7,0c41.4,0,75.4,33.8,75.4,75.4l-0.5,280.6h33.8l0.5-281L781.7,265.8L781.7,265.8z M126.3,280.6
	c13.3,0,23.8,10.8,23.8,23.9v51.8c0,13.3-10.8,23.9-23.8,23.9c-13,0-23.8-10.8-23.8-23.9v-51.8C102.2,291.2,113,280.6,126.3,280.6z
	 M404.6,313.3c13.9,0,25.2,11.2,25.2,25.2V491c0,13.9-11.2,25.2-25.2,25.2c-14,0-25.2-11.2-25.2-25.2V338.5
	C379.4,324.5,390.7,313.3,404.6,313.3z M666.5,262.6v218.9c0,19.1-15.5,34.6-34.7,34.6s-34.6-15.5-34.6-34.6V266
	c0-27,14.4-50.9,35.8-64.1C653.2,214.7,666.5,237.2,666.5,262.6z"/>
</svg>
