<?xml version="1.0" encoding="utf-8"?>
<!-- Generator: Adobe Illustrator 24.3.0, SVG Export Plug-In . SVG Version: 6.00 Build 0)  -->
<svg version="1.1" id="Layer_1" xmlns="http://www.w3.org/2000/svg" xmlns:xlink="http://www.w3.org/1999/xlink" x="0px" y="0px"
	 viewBox="0 0 850.4 850.4" style="enable-background:new 0 0 850.4 850.4;" xml:space="preserve">
<style type="text/css">
	.st0{fill:#1D1D1B;}
</style>
<path class="st0" d="M557.9,465.5c-10.4-14.9-23.2-25.4-37.1-31.5c22-18.7,21.6-50.2,21.6-50.2V226.4c0-38-31-69.1-69.1-69.1
	c-23.2,0-43.6,11.5-56.2,29c-15.8-17.8-38.5-29-63.9-29c-46.8,0-84.8,38-84.8,84.8v115.2c0,31.7,25.9,57.6,57.6,57.6
	s57.6-25.9,57.6-57.6v-51.8c0-31.7-25.9-57.6-57.6-57.6c-8.6,0-16.6,1.8-23.9,5.2v-11c0-28.1,23-51.1,51.1-51.1s51.1,22.9,51.1,51.1
	v167.4H438V226.6c0-19.6,16-35.3,35.3-35.3c19.3,0,35.3,16,35.3,35.3c0,0,0,149.8,0,151c0,26.6-20.5,48.4-46.6,50.9H333.8
	c-36.2,0-65.5,29.5-65.5,65.5s29.5,65.5,65.5,65.5l29.7,0.2c0,0,1.6-75.1,27-86.9c-1.4,5.2-2.2,10.6-2.2,16.2c0,32.2,25.2,58,56,58
	h21.8c27.9,0,50.4-26.1,50.4-58c0-7.2-1.1-14.2-3.4-20.7c20,12.8,34.6,43.9,34.6,79c0,44.1-23,81.7-50.9,85
	c2.5-5.8,3.6-12.1,3.6-18.9c0-28.6-24.1-51.8-54-52.9l0,0h-34.9c-30.8,0-56,23.9-56,52.9s25.2,52.9,56,52.9h81.7
	c24.8,0,47.7-13.3,64.6-37.1c15.5-22,24.1-51.3,24.1-81.9S573.5,487.6,557.9,465.5z M326,281.5c13.3,0,23.9,10.8,23.9,23.9v51.7
	c0,13.3-10.8,23.9-23.9,23.9c-13.1,0-23.9-10.8-23.9-23.9v-51.8C302.1,292.3,312.9,281.5,326,281.5z M302.1,493.9
	c0-17.6,14.2-31.7,31.7-31.7h20.5c-13.3,16.6-22.3,38.7-24.1,63.5C314.5,523.6,302.1,510.1,302.1,493.9z M466.4,513.5h-21.8
	c-12.4,0-22.3-11-22.3-24.3s9.9-24.3,22.3-24.3h21.8c9,0,16.6,11.5,16.6,24.3C483,502,475.4,513.5,466.4,513.5z M411.7,632.5
	c-12.4,0-22.3-8.5-22.3-19.1s9.9-19.1,22.3-19.1H445c12.4,0,22.3,8.5,22.3,19.1s-9.9,19.1-22.3,19.1H411.7z"/>
</svg>
