<?xml version="1.0" encoding="utf-8"?>
<!-- Generator: Adobe Illustrator 24.3.0, SVG Export Plug-In . SVG Version: 6.00 Build 0)  -->
<svg version="1.1" id="Layer_1" xmlns="http://www.w3.org/2000/svg" xmlns:xlink="http://www.w3.org/1999/xlink" x="0px" y="0px"
	 viewBox="0 0 850.4 850.4" style="enable-background:new 0 0 850.4 850.4;" xml:space="preserve">
<style type="text/css">
	.st0{fill:#1D1D1B;}
</style>
<path class="st0" d="M425.1,239.8c-36.2,0-65.5,29.5-65.5,65.5v179.3c0,36.2,29.5,65.5,65.5,65.5s65.5-29.5,65.5-65.5v-27.9h-33.8
	v27.9c0,17.5-14.2,31.7-31.7,31.7c-17.5,0-31.7-14.2-31.7-31.7v-76.3h97.2l0.2-102.8C490.8,269.3,461.3,239.8,425.1,239.8z
	 M393.4,305.5c0-17.5,14.2-31.7,31.7-31.7c17.6,0,31.7,14.2,31.7,31.7v69.3h-63.7L393.4,305.5L393.4,305.5z"/>
</svg>
