<?xml version="1.0" encoding="utf-8"?>
<!-- Generator: Adobe Illustrator 24.3.0, SVG Export Plug-In . SVG Version: 6.00 Build 0)  -->
<svg version="1.1" id="Layer_1" xmlns="http://www.w3.org/2000/svg" xmlns:xlink="http://www.w3.org/1999/xlink" x="0px" y="0px"
	 viewBox="0 0 850.4 850.4" style="enable-background:new 0 0 850.4 850.4;" xml:space="preserve">
<style type="text/css">
	.st0{fill:#1D1D1B;}
</style>
<path class="st0" d="M425.2,110.9c-37.6,0-68.6,28.1-73.4,64.1h-0.7V385v4.7v81.4l0,0v5.9c0,40.7,33.1,74,74,74s74-33.1,74-74v-52.6
	v-7.4v-37.4c0-28.8-23.4-52.2-52.2-52.2c-28.8,0-52.2,23.4-52.2,52.2v44.8c0,28.8,23.4,52.2,52.2,52.2c6.5,0,12.6-1.1,18.4-3.4v3.8
	c0,22.3-18,40.3-40.3,40.3c-22.3,0-40.3-18-40.3-40.3v-18.9l0,0v-68.4V385V203.8l0,0v-18.9c0-22.3,18-40.3,40.3-40.3
	c19.8,0,36.2,14.4,39.6,33.3c-5.6-2-11.5-3.2-17.8-3.2c-28.8,0-52.2,23.4-52.2,52.2v37.4c0,28.8,23.4,52.2,52.2,52.2
	s52.2-23.4,52.2-52.2v-20.7V227v-23.2v-18v-1.1C499.2,144,465.9,110.9,425.2,110.9z M447,443c-10.1,0-18.5-8.3-18.5-18.4v-44.8
	c0-10.1,8.3-18.4,18.5-18.4s18.4,8.3,18.4,18.4v37.4v7.4C465.5,434.7,457.1,443,447,443z M465.5,264.4c0,10.1-8.3,18.4-18.4,18.4
	s-18.5-8.3-18.5-18.4V227c0-10.1,8.3-18.4,18.5-18.4s18.4,8.3,18.4,18.4v16.6V264.4z"/>
</svg>
