<?xml version="1.0" encoding="utf-8"?>
<!-- Generator: Adobe Illustrator 24.3.0, SVG Export Plug-In . SVG Version: 6.00 Build 0)  -->
<svg version="1.1" id="Layer_1" xmlns="http://www.w3.org/2000/svg" xmlns:xlink="http://www.w3.org/1999/xlink" x="0px" y="0px"
	 viewBox="0 0 850.4 850.4" style="enable-background:new 0 0 850.4 850.4;" xml:space="preserve">
<style type="text/css">
	.st0{fill:#1D1D1B;}
</style>
<g>
	<path class="st0" d="M470.6,546.3V286.2c0-23.4,18.9-42.3,42.3-42.3c23.4,0,42.3,18.9,42.3,42.3v260.1H589V286.4
		c0-42.1-34.2-76.3-76-76.3s-76,34.2-76,76.1v226.6h-57.6v-82.6c0-32.4-26.6-58.9-58.9-58.9s-59,26.5-59,58.9v116.1h33.8V430.2
		c0-13.9,11.2-25.2,25.2-25.2c13.9,0,25.2,11.2,25.2,25.2v116.1H470.6z"/>
	<path class="st0" d="M555.2,565.8V677c0,8.8-6.1,16-13.5,16s-13.5-7.2-13.5-16v-44.3c0-39.1-29.9-70.9-66.8-70.9
		s-66.8,31.7-66.8,70.9l0.7,50.2c0,24.3,19.6,43.9,43.9,43.9c24.3,0,43.9-19.6,43.9-43.9v-16.6c0-24.3-19.6-43.9-43.9-43.9
		c-3.4,0-6.5,0.5-9.7,1.1c3.6-16.2,16.6-28.1,31.9-28.1c18.2,0,33.1,16.6,33.1,37.1V677c0,27.5,21.2,49.7,47.2,49.7
		c26.1,0,47.2-22.3,47.2-49.7V565.8H555.2L555.2,565.8z M439.1,656.1c5.6,0,10.1,4.5,10.1,10.1v16.6c0,5.6-4.5,10.1-10.1,10.1
		s-10.1-4.5-10.1-10.1v-16.6C429,660.6,433.5,656.1,439.1,656.1z"/>
</g>
</svg>
