<?xml version="1.0" encoding="utf-8"?>
<!-- Generator: Adobe Illustrator 24.3.0, SVG Export Plug-In . SVG Version: 6.00 Build 0)  -->
<svg version="1.1" id="Layer_1" xmlns="http://www.w3.org/2000/svg" xmlns:xlink="http://www.w3.org/1999/xlink" x="0px" y="0px"
	 viewBox="0 0 850.4 850.4" style="enable-background:new 0 0 850.4 850.4;" xml:space="preserve">
<style type="text/css">
	.st0{fill:#1D1D1B;}
</style>
<path class="st0" d="M512.9,164.5c-41.9,0-76.1,34.2-76.1,76.1v226.6h-57.6v-82.6c0-32.4-26.6-59-58.9-59s-59,26.6-59,59v116.1h33.8
	V384.5c0-14,11.2-25.2,25.2-25.2c13.9,0,25.2,11.2,25.2,25.2v116.1h125.1V240.7c0-23.4,18.9-42.3,42.3-42.3
	c23.4,0,42.3,18.9,42.3,42.3c0,0,0,241.2,0,241.9c0,35.3-33.1,64.4-74,64.4H326.9c-36.2,0-65.5,29.5-65.5,65.5s29.5,65.5,65.5,65.5
	h261.7v-33.8H327.1c-17.6,0-31.7-14.2-31.7-31.7s14.2-31.7,31.7-31.7h154.4c59.4,0,107.8-44.1,107.5-98.1l0,0V240.5
	C589,198.7,554.8,164.5,512.9,164.5z"/>
</svg>
