<?xml version="1.0" encoding="utf-8"?>
<!-- Generator: Adobe Illustrator 24.3.0, SVG Export Plug-In . SVG Version: 6.00 Build 0)  -->
<svg version="1.1" id="Layer_1" xmlns="http://www.w3.org/2000/svg" xmlns:xlink="http://www.w3.org/1999/xlink" x="0px" y="0px"
	 viewBox="0 0 850.4 850.4" style="enable-background:new 0 0 850.4 850.4;" xml:space="preserve">
<style type="text/css">
	.st0{fill:#1D1D1B;}
</style>
<path class="st0" d="M488,545.3h-33.8V114.6c-0.2-16-13.3-29-29.2-29c-16,0-28.8,13.1-28.8,28.8v45.2h-33.8v-45
	c0-34.4,28.1-62.5,62.6-62.5c34.2,0,62.5,28.1,62.8,62.5L488,545.3z"/>
</svg>
