<?xml version="1.0" encoding="utf-8"?>
<!-- Generator: Adobe Illustrator 24.3.0, SVG Export Plug-In . SVG Version: 6.00 Build 0)  -->
<svg version="1.1" id="Layer_1" xmlns="http://www.w3.org/2000/svg" xmlns:xlink="http://www.w3.org/1999/xlink" x="0px" y="0px"
	 viewBox="0 0 850.4 850.4" style="enable-background:new 0 0 850.4 850.4;" xml:space="preserve">
<style type="text/css">
	.st0{fill:#1D1D1B;}
</style>
<path class="st0" d="M444.4,302.9c0,16.9-19.4,30.8-36,31.7c-0.4,0-1.4,0-2.5,0V126.3h-33.8V547H406V369.7c0.9,0,1.8,0,2.2,0
	c16.6,0.9,36.2,14.9,36.2,31.7v145.8h33.8V401.7c0-20.5-10.8-37.8-25.9-49.3c15.1-11.7,25.9-29,25.9-49.3V237h-33.8V302.9z"/>
</svg>
