<?xml version="1.0" encoding="utf-8"?>
<!-- Generator: Adobe Illustrator 24.3.0, SVG Export Plug-In . SVG Version: 6.00 Build 0)  -->
<svg version="1.1" id="Layer_1" xmlns="http://www.w3.org/2000/svg" xmlns:xlink="http://www.w3.org/1999/xlink" x="0px" y="0px"
	 viewBox="0 0 850.4 850.4" style="enable-background:new 0 0 850.4 850.4;" xml:space="preserve">
<style type="text/css">
	.st0{fill:#1D1D1B;}
</style>
<g>
	<path class="st0" d="M457.4,513c-12.4,0-23.6,4.4-32.4,12c-8.8-7.5-20-12-32.4-12c-27.2,0-49.3,21.7-49.3,48.5v109.2H377V561.5
		c0-8.4,7-15.3,15.5-15.3c8.5,0,15.5,6.9,15.5,15.3v109.2h33.8V561.5c0-8.4,7-15.3,15.5-15.3c8.5,0,15.5,6.9,15.5,15.3v109.2h33.8
		V561.5C506.6,535,484.6,513,457.4,513z"/>
	<path class="st0" d="M499.4,274.2h-22.5v-53.8c0-29-24.1-52.7-53.5-52.7s-53.6,23.7-53.6,52.7v53.8h-23.2c-50,0-50,51-50,51v130.3
		c0,29,24.1,52.7,53.6,52.7c14.2,0,27-5.5,36.7-14.4c9.7,8.9,22.5,14.4,36.7,14.4c29.5,0,53.6-23.7,53.6-52.7V307.8h22.5
		c14.8,0,20.2,11.7,20.2,22.8v174.1h33.8V330.7C553.2,297.7,530.7,274.2,499.4,274.2z M403.8,220.3c0-10.9,9-19.5,19.8-19.5
		s19.8,8.9,19.8,19.5v53.8h-39.6V220.3z M350.3,474.5c-11,0-19.8-8.9-19.8-19.5V329.8c0-3.8,0.9-22.8,16.4-22.8h23.2v147.8
		C370.1,465.8,361.1,474.5,350.3,474.5z M443.4,455c0,10.9-9,19.5-19.8,19.5c-11,0-19.8-8.9-19.8-19.5V307.2h39.6V455z"/>
</g>
</svg>
