<?xml version="1.0" encoding="utf-8"?>
<!-- Generator: Adobe Illustrator 24.3.0, SVG Export Plug-In . SVG Version: 6.00 Build 0)  -->
<svg version="1.1" id="Layer_1" xmlns="http://www.w3.org/2000/svg" xmlns:xlink="http://www.w3.org/1999/xlink" x="0px" y="0px"
	 viewBox="0 0 850.4 850.4" style="enable-background:new 0 0 850.4 850.4;" xml:space="preserve">
<style type="text/css">
	.st0{fill:#1D1D1B;}
</style>
<path class="st0" d="M588,544.2c8.5-12.6,13.7-27.5,14.9-43.6h0.2V357.9c0-36.5-23.2-62.8-55.1-62.8h-26.1v-64.8
	c0-32.4-26.6-59-58.9-59s-59,26.6-59,59v65.2h-29c-29.5,0-51.5,22.5-54.7,54.9l-0.7,111.1l0,0c1.6,31.3,27.5,56,59,56
	c16.4,0,31.3-6.8,42.1-17.8c10.8,11,25.6,17.8,42.1,17.8c32.6,0,58.7-20.2,58.7-53.1l0.2-135.2h26.1c15.8,0,21.4,15.5,21.4,29v137
	c0,30.1-24.5,54.7-54.7,54.7H333.5c-30.1,0-54.7-24.5-54.7-54.7V178.2h-33.8v317v0.9l0,0c0.4,48.4,39.8,87.5,88.4,87.5h179.5v6.5
	l0,0c0.7,24.8,21.1,44.8,46.1,44.8c4.3,0,8.3-0.7,12.4-1.8v7.6c0,6.8-5.6,12.4-12.4,12.4s-12.4-5.6-12.4-12.4h-33.8
	c0,25.4,20.7,46.1,46.1,46.1c25.4,0,46.1-20.7,46.1-46.1v-63C605.3,577.8,605.8,550.3,588,544.2z M437.5,230.4
	c0-13.9,11.2-25.2,25.2-25.2c14,0,25.2,11.2,25.2,25.2v65.2h-50.4V230.4z M378.5,483.7c-14,0-25.2-11.2-25.2-25.2V358.2
	c0-13.3,5.6-29,21.4-29h29v129.4C403.7,472.5,392.5,483.7,378.5,483.7z M487.9,458.5c0,13.9-11.2,25.2-25.2,25.2
	c-14,0-25.2-11.2-25.2-25.2V329.1h50.4V458.5z M559.2,600.9c-6.8,0-12.4-5.6-12.4-12.4v-8.3c0-1.1,0.2-2.2,0.5-3.2
	c5.6-2.2,11-5.2,16-8.5c4.7,1.8,8.3,6.3,8.3,11.7v8.3C571.6,595.3,566.2,600.9,559.2,600.9z"/>
</svg>
