<?xml version="1.0" encoding="utf-8"?>
<!-- Generator: Adobe Illustrator 24.3.0, SVG Export Plug-In . SVG Version: 6.00 Build 0)  -->
<svg version="1.1" id="Layer_1" xmlns="http://www.w3.org/2000/svg" xmlns:xlink="http://www.w3.org/1999/xlink" x="0px" y="0px"
	 viewBox="0 0 850.4 850.4" style="enable-background:new 0 0 850.4 850.4;" xml:space="preserve">
<style type="text/css">
	.st0{fill:#1D1D1B;}
</style>
<path class="st0" d="M625.2,178.5v130.3c0,26.5-18.7,48.6-43.9,54.8V220.6c-1.6-27-24.8-48.4-52.9-48.4s-51.3,21.5-52.9,48.4l0,0
	v88.3c0,42.7,31,78.4,72.2,87.2v120.7H481l-0.2-144.4c0-45.4-31.7-78.4-75.4-78.7l0,0h-0.7h-11.2v-63.5c0-31.6-26.6-57.4-58.9-57.4
	s-59,25.9-59,57.4v63.5h-29c-30.1,0-52.4,23-54.9,55.2h-0.2v147.9c0,31.6,26.6,57.4,58.9,57.4c16.4,0,31.3-6.6,42.1-17.3
	c10.8,10.7,25.6,17.3,42.1,17.3c32.4,0,58.9-25.9,58.9-57.4V327h11.2c31.3,0,42.3,24.8,42.3,45.8l0.2,177.3h118.3
	c-2.9,11.4-1.8,22.4-1.8,22.4c0,24.8,20.7,44.9,46.1,44.9c4.3,0,8.3-0.7,12.4-1.8v9.6c0,8.1-5.6,14.5-12.4,14.5s-12.4-6.6-12.4-14.5
	h-33.8c0,26.1,20.7,47.3,46.1,47.3c25.4,0,46.1-21.3,46.1-47.3v-66.8c0,0,0.2-6.1-1.8-8.3h4.7V178.5H625.2z M309.1,230.4
	c0-13.6,11.2-24.5,25.2-24.5c14,0,25.2,11,25.2,24.5v63.8h-50.4V230.4z M250.1,521.2c-13.9,0-25.2-11-25.2-24.5V354.9
	c0-12.9,5.6-28.3,21.4-28.3h29v170C275.3,510,263.9,521.2,250.1,521.2z M359.5,496.7c0,13.6-11.2,24.5-25.2,24.5
	c-14,0-25.2-11-25.2-24.5v-170h50.4V496.7z M509.1,308.9v-85.2c0-10.3,8.5-18.6,19.1-18.6c10.6,0,19.1,8.3,19.1,18.6v138.3
	C525.1,354.2,509.1,333.4,509.1,308.9z M581.3,397.2c16.4-2.4,31.5-9.2,43.9-19.1V517h-43.9V397.2z M609.7,584.3
	c-6.8,0-12.4-5.5-12.4-12.1v-10.3c0-6.6,5.6-12.1,12.4-12.1s12.4,5.5,12.4,12.1v10.3C622.1,578.8,616.4,584.3,609.7,584.3z"/>
</svg>
