<?xml version="1.0" encoding="utf-8"?>
<!-- Generator: Adobe Illustrator 24.3.0, SVG Export Plug-In . SVG Version: 6.00 Build 0)  -->
<svg version="1.1" id="Layer_1" xmlns="http://www.w3.org/2000/svg" xmlns:xlink="http://www.w3.org/1999/xlink" x="0px" y="0px"
	 viewBox="0 0 850.4 850.4" style="enable-background:new 0 0 850.4 850.4;" xml:space="preserve">
<style type="text/css">
	.st0{fill:#1D1D1B;}
</style>
<path class="st0" d="M625.1,177.8V307c0,26.5-18.7,48.6-43.9,54.8v-143l0,0c-1.6-26.9-24.8-48.4-52.9-48.4
	c-28.1,0-51.3,21.5-52.9,48.4l0,0V307c0,42.7,31,78.4,72.2,87.2v120.7h-66.8l-0.2-144.4c0-45.3-31.7-78.4-75.4-78.6l0,0h-11.9v-63.7
	c0-31.5-26.6-57.4-59-57.4s-58.9,25.8-58.9,57.4v63.5h-29c-30.1,0-52.4,23-54.9,55.2h-0.2V495c0,31.5,26.6,57.4,58.9,57.4
	c16.4,0,31.3-6.6,42.1-17.3c10.8,10.7,25.6,17.3,42.1,17.3c32.4,0,59-25.8,59-57.4V325h11.2c31.3,0,42.3,24.8,42.3,45.8l0.2,177.2
	h212V177.8H625.1z M309,228.6c0-13.6,11.2-24.5,25.2-24.5s25.2,11,25.2,24.5v63.7H309V228.6z M250,519.3c-13.9,0-25.2-11-25.2-24.5
	V353.3c0-12.9,5.6-28.3,21.4-28.3h29v170C275.2,508.4,263.8,519.3,250,519.3z M359.4,494.8c0,13.6-11.2,24.5-25.2,24.5
	s-25.2-11-25.2-24.5V325h50.4V494.8z M509,307v-85.2c0-10.3,8.5-18.6,19.1-18.6c10.6,0,19.1,8.3,19.1,18.6v138.2
	C525,352.4,509,331.6,509,307z M581.2,515.1V395.3c16.4-2.4,31.5-9.2,43.9-19.1v138.9H581.2z"/>
</svg>
