<?xml version="1.0" encoding="utf-8"?>
<!-- Generator: Adobe Illustrator 24.3.0, SVG Export Plug-In . SVG Version: 6.00 Build 0)  -->
<svg version="1.1" id="Layer_1" xmlns="http://www.w3.org/2000/svg" xmlns:xlink="http://www.w3.org/1999/xlink" x="0px" y="0px"
	 viewBox="0 0 850.4 850.4" style="enable-background:new 0 0 850.4 850.4;" xml:space="preserve">
<style type="text/css">
	.st0{fill:#1D1D1B;}
</style>
<path class="st0" d="M604.7,356.2c-0.9-35.5-23.9-60.7-55.3-60.7h-14.2h-3.6h-8.4V244v-2.5V230c0-32.5-26.6-59.2-59.2-59.2
	s-59.2,26.4-59.2,59.2v8.8v5.2v51.5h-11.3h-7.2h-10.6c-30.3,0-52.6,23.7-55.1,56.9h-0.2v5.9v41.5v92.6v5v9.3
	c0,32.5,26.6,59.2,59.2,59.2c16.5,0,31.4-6.8,42.2-17.8c10.8,11.1,25.7,17.8,42.2,17.8c32.5,0,59.2-26.6,59.2-59.2v-5.6v-8.4V329.3
	h8.4h3.6h14.2c15.8,0,21.5,15.6,21.5,29.1v25.3v1.1c0,13.3-5.6,29.1-21.5,29.1h-17.8v33.9h17.8c15.8,0,21.5,15.6,21.5,29.1v85.1h0
	v23.9c0,30.3-24.6,54.9-54.9,54.9H334.4c-30.3,0-54.9-24.6-54.9-54.9v-23.9V178.6h-33.9v383.6v23.9c0,49,39.7,88.7,88.7,88.7h183.8
	c47.9-1.1,86.5-40.4,86.5-88.5v-24.2h0V477c0-18.7-6.1-34.8-16.5-46.1c10.4-11.3,16.5-27.3,16.5-46.1v-1.1v-25.3L604.7,356.2z
	 M404.9,492.3v5v9.3c0,14-11.3,25.3-25.3,25.3c-14,0-25.3-11.3-25.3-25.3v-9.3v-5v-92.6v-41.5c0-13.3,5.6-29.1,21.5-29.1h10.6h7.2
	h11.3V492.3z M489.3,500.9v5.6c0,14-11.3,25.3-25.3,25.3c-14,0-25.3-11.3-25.3-25.3v-9.3v-5V329.1h50.6v163.5h0V500.9z M489.3,241.5
	v2.7v51.5h-50.6V244v-5.2V230c0-14,11.3-25.3,25.3-25.3s25.3,11.3,25.3,25.3V241.5z"/>
</svg>
