<?xml version="1.0" encoding="utf-8"?>
<!-- Generator: Adobe Illustrator 24.3.0, SVG Export Plug-In . SVG Version: 6.00 Build 0)  -->
<svg version="1.1" id="Layer_1" xmlns="http://www.w3.org/2000/svg" xmlns:xlink="http://www.w3.org/1999/xlink" x="0px" y="0px"
	 viewBox="0 0 850.4 850.4" style="enable-background:new 0 0 850.4 850.4;" xml:space="preserve">
<style type="text/css">
	.st0{fill:#1D1D1B;}
</style>
<g>
	<path class="st0" d="M522.6,591.4c-3.8,0-7.7,0.5-11.3,1.6v-67.3h-33.8v112.7c0,8.8-7.2,16-16,16c-8.8,0-16-7.2-16-16v-44.3
		c0-39.2-31.7-70.9-70.9-70.9s-70.9,31.7-70.9,70.9l-0.2,47.9c0,25.4,21.6,46.1,47,46.1c25.4,0,46.1-20.7,46.1-46.1v-12.2
		c0-25.4-20.7-46.1-46.1-46.1c-4,0-8.1,0.7-11.9,1.6c3.8-16.4,18.7-28.6,36.2-28.6c20.5,0,37.1,16.7,37.1,37.1v44.3
		c0,27.5,22.3,49.7,49.7,49.7c13.1,0,24.7-5,33.7-13.3c7.4,5.9,16.9,9.5,27.2,9.5c3.4,0,6.8-0.5,10.1-1.1v5.6
		c0,5.6-4.5,10.4-10.1,10.4s-10.1-4.7-10.1-10.4H479c0,24.3,19.6,44.1,43.9,44.1c24.3,0,43.9-19.8,43.9-44.1v-58.7
		C566.7,629.9,568.5,592.1,522.6,591.4z M350.7,617.5c6.8,0,12.4,5.6,12.4,12.4V642c0,6.8-5.6,12.4-12.4,12.4s-12.4-5.6-12.4-12.4
		v-12.2C338.3,622.9,343.7,617.5,350.7,617.5z M522.6,650.6c-5.6,0-10.1-4.5-10.1-10.1v-5.2c0-5.6,4.5-10.1,10.1-10.1
		s10.1,4.5,10.1,10.1v5.2C532.5,646.1,528,650.6,522.6,650.6z"/>
	<path class="st0" d="M395.9,488.6c12.1-12.4,18.4-28.8,18-45.9V238.8c0-17.6,14.2-31.7,31.7-31.7s31.7,14.2,31.7,31.7v268.4h33.8
		V238.8c0-36.2-29.5-65.5-65.5-65.5s-65.5,29.5-65.5,65.5v204.5c0.2,8.1-2.7,15.8-8.6,21.8c-5.9,6.1-13.9,9.5-22.5,9.5
		c-17.5,0-31.7-14.2-31.7-31.7V180.3h-33.8v262.1c0,36.2,29.5,65.5,65.5,65.5C366.9,508.2,383.6,501.2,395.9,488.6z"/>
</g>
</svg>
