<?xml version="1.0" encoding="utf-8"?>
<!-- Generator: Adobe Illustrator 24.3.0, SVG Export Plug-In . SVG Version: 6.00 Build 0)  -->
<svg version="1.1" id="Layer_1" xmlns="http://www.w3.org/2000/svg" xmlns:xlink="http://www.w3.org/1999/xlink" x="0px" y="0px"
	 viewBox="0 0 850.4 850.4" style="enable-background:new 0 0 850.4 850.4;" xml:space="preserve">
<style type="text/css">
	.st0{fill:#1D1D1B;}
</style>
<g>
	<path class="st0" d="M517,170.6c-32.2,0-44.1,18.1-44.3,18.3c-11.5-11.3-27.2-18.5-45-18.5c-34.4,0-62.5,27.3-62.5,60.6v258.9
		c0.2,7.4-5.2,28.8-29,28.8c-16.4,0-29.7-12.9-29.7-28.8V178h-33.8v312.4c0,34,28.6,61.5,63.5,61.5c56.7,0,63.2-45.6,62.8-61.7
		V231.2c0-15.5,13-27.9,28.8-27.9c16,0,28.8,12.7,28.8,27.9v315.6h33.8V229.3v-0.4c-0.2-6.5,2.5-25.5,26.5-25.5
		c15.1,0,27.2,11.8,27.2,26v317.6h33.8V229.5C578,197,550.5,170.6,517,170.6z"/>
</g>
</svg>
