<?xml version="1.0" encoding="utf-8"?>
<!-- Generator: Adobe Illustrator 24.3.0, SVG Export Plug-In . SVG Version: 6.00 Build 0)  -->
<svg version="1.1" id="Layer_1" xmlns="http://www.w3.org/2000/svg" xmlns:xlink="http://www.w3.org/1999/xlink" x="0px" y="0px"
	 viewBox="0 0 850.4 850.4" style="enable-background:new 0 0 850.4 850.4;" xml:space="preserve">
<style type="text/css">
	.st0{fill:#1D1D1B;}
</style>
<g>
	<path class="st0" d="M548.5,545.4c8.8-13.2,14-29.1,14-46.2V230.8c0-32.7-26.8-59.4-59.6-59.4s-59.6,26.7-59.6,59.4v11.7v156.4
		v38.8v0.4c0.2,6.5-2.2,12.8-7,17.5c-4.7,4.9-11.2,7.6-18.2,7.6c-14.2,0-25.9-11.7-25.9-25.8V178.1h-33.8v259.4
		c0,32.7,26.8,59.4,59.6,59.4c16.2,0,31.3-6.3,42.5-17.9c11-11.2,16.9-26,16.4-41.7v-38.5V242.2v-11.7c0-14.1,11.7-25.8,25.9-25.8
		s25.9,11.7,25.9,25.8v259.3h-0.2c0,1.1,0.2,7.2,0.2,9.2c0,28-23,50.6-51.1,50.9h-16.9h-16h-70.4c-34.9,0-63.4-28.7-63.4-63.9V178.3
		h-33.8v308c0,53.1,42.5,96.4,95.2,97.3l0,0h72.2h16h14.9c0,0.9-0.2,1.8-0.2,2.7v61c0,25.3,20.7,45.9,46.1,45.9h5.9
		c25.4,0,46.1-20.6,46.1-45.9v-61C573.5,568.5,563.3,553,548.5,545.4z M539.7,647.2c0,6.7-5.6,12.3-12.4,12.3h-5.8
		c-6.8,0-12.4-5.6-12.4-12.3v-61c0-6.7,5.6-12.3,12.4-12.3h5.8c6.8,0,12.4,5.6,12.4,12.3V647.2z"/>
</g>
</svg>
