<?xml version="1.0" encoding="utf-8"?>
<!-- Generator: Adobe Illustrator 24.3.0, SVG Export Plug-In . SVG Version: 6.00 Build 0)  -->
<svg version="1.1" id="Layer_1" xmlns="http://www.w3.org/2000/svg" xmlns:xlink="http://www.w3.org/1999/xlink" x="0px" y="0px"
	 viewBox="0 0 850.4 850.4" style="enable-background:new 0 0 850.4 850.4;" xml:space="preserve">
<style type="text/css">
	.st0{fill:#1D1D1B;}
</style>
<g>
	<path class="st0" d="M567.7,230.3c0-32.5-26.8-58.9-59.6-58.9c-32.9,0-59.6,26.5-59.6,58.9v11.6v155.2v38.5v0.4
		c0.2,6.4-2.2,12.7-7,17.3c-4.7,4.9-11.2,7.6-18.2,7.6c-14.2,0-25.9-11.6-25.9-25.6V179.7h-33.8v255.6c0,32.5,26.8,58.9,59.6,58.9
		c16.2,0,31.3-6.2,42.5-17.8c11-11.1,16.9-25.8,16.4-41.4v-38V241.9v-11.6c0-14,11.7-25.6,25.9-25.6c14.2,0,25.9,11.6,25.9,25.6
		v257.2h-0.2c0,1.1,0.2,7.1,0.2,9.1c0,21.6-13.7,39.8-32.9,47.1c-0.4,0.2-0.7,0.2-1.1,0.4c-5.4,1.8-11,2.9-16.9,2.9h-16.9h-16h-70.4
		c-34.9,0-63.5-28.5-63.5-63.4V179.7h-33.8v303.8c0,52.7,42.5,95.6,95.2,96.5l0,0h72.2h16h4.3c-0.2,2-0.4,4.2-0.4,6.4v5.1
		c0,25.1,20.7,45.6,46.1,45.6c4.3,0,8.3-0.7,12.4-1.8v5.3v4c0,7.8-5.6,14.2-12.4,14.2c-6.7,0-12.4-6.4-12.4-14.2h-33.8
		c0,26.2,20.7,47.6,46.1,47.6c25.4,0,46.1-21.3,46.1-47.6v-4v-6.2v-42.9v-5.1v-2.7h-0.2c-0.7-12.7-6.8-24-15.8-31.8
		c13.5-14.9,21.6-34.5,21.6-55.8V230.3z M516,604.1c-6.7,0-12.4-5.6-12.4-12.2v-5.1c0-4.9,2.9-9.3,7.4-11.1c0.5-0.2,1.1-0.4,1.6-0.7
		c1.1-0.2,2.2-0.4,3.4-0.4c6.8,0,12.4,5.6,12.4,12.2v5.1C528.4,598.5,522.7,604.1,516,604.1z"/>
</g>
</svg>
