<?xml version="1.0" encoding="utf-8"?>
<!-- Generator: Adobe Illustrator 24.3.0, SVG Export Plug-In . SVG Version: 6.00 Build 0)  -->
<svg version="1.1" id="Layer_1" xmlns="http://www.w3.org/2000/svg" xmlns:xlink="http://www.w3.org/1999/xlink" x="0px" y="0px"
	 viewBox="0 0 850.4 850.4" style="enable-background:new 0 0 850.4 850.4;" xml:space="preserve">
<style type="text/css">
	.st0{fill:#1D1D1B;}
</style>
<path class="st0" d="M511.9,178.8v335.5H338.5v-70.3h112.3V238.1h-0.2c-2-36.8-34-66-72.9-66c-39.6,0-71.8,30.3-72.9,67.9l0,0v306.6
	h241V178.8H511.9z M338.5,241.8c0-20.6,17.5-37.4,39.1-37.4c21.6,0,39.1,16.7,39.1,37.4v169.4h-78.5V241.8H338.5z"/>
</svg>
