<?xml version="1.0" encoding="utf-8"?>
<!-- Generator: Adobe Illustrator 24.3.0, SVG Export Plug-In . SVG Version: 6.00 Build 0)  -->
<svg version="1.1" id="Layer_1" xmlns="http://www.w3.org/2000/svg" xmlns:xlink="http://www.w3.org/1999/xlink" x="0px" y="0px"
	 viewBox="0 0 850.4 850.4" style="enable-background:new 0 0 850.4 850.4;" xml:space="preserve">
<style type="text/css">
	.st0{fill:#1D1D1B;}
</style>
<g>
	<path class="st0" d="M476.8,523.6c-17.1,0-32.6,6.1-44.8,15.8c-7.9-9.7-20-15.8-33.5-15.8c-42.5,0-42.8,40-42.8,40v1.4v7h-0.2
		h-10.8c-23.4,0-40.3,18.9-40.3,45l-0.2,21.2c0,23.6,19.1,42.8,42.8,42.8c9.7,0,18.7-3.4,25.9-8.8c7.2,5.4,16.2,8.8,25.9,8.8
		c9.7,0,18.7-3.4,25.9-8.8c7.2,5.4,16.2,8.8,25.9,8.8c21.8,0,39.8-16.4,42.5-37.6h0.2v-27.2c0-25.6-16.6-44.1-39.6-44.1h-6.3
		c6.3-8.8,17.3-14.9,29.5-14.9c19.6,0,35.5,14.9,35.5,33.1v90.2h33.8v-90C545.9,553.5,514.9,523.6,476.8,523.6z M389.5,565.2
		c0-4.3,4-7.9,9-7.9c4.9,0,9,3.6,9,7.9v7h-18V565.2z M346.8,647.3c-4.3,0-7.9-2.9-8.8-7V617c0-1.8,0.2-11.2,6.5-11.2h10.8h0.2v32.4
		C355.8,643.3,351.7,647.3,346.8,647.3z M398.5,647.3c-5,0-9-4.1-9-9v-32.4h18v1.1v31.3C407.5,643.3,403.5,647.3,398.5,647.3z
		 M459.3,616.3v22.1c0,4.9-4.1,9-9,9c-5,0-9-4.1-9-9v-31.3v-1.1h12.1C459.1,605.7,459.3,614.5,459.3,616.3z"/>
	<path class="st0" d="M512.2,178.2v299.5H338.7V407H451V244.1h-0.2c-2-38.2-34-68.6-72.9-68.6c-39.6,0-71.8,31.5-72.9,70.6l0,0V511
		h241V178h-33.8V178.2z M338.7,248.2c0-21.4,17.8-38.9,39.4-38.9c21.6,0,39.1,17.3,39.1,38.9v125.1h-78.5V248.2z"/>
</g>
</svg>
