<?xml version="1.0" encoding="utf-8"?>
<!-- Generator: Adobe Illustrator 24.3.0, SVG Export Plug-In . SVG Version: 6.00 Build 0)  -->
<svg version="1.1" id="Layer_1" xmlns="http://www.w3.org/2000/svg" xmlns:xlink="http://www.w3.org/1999/xlink" x="0px" y="0px"
	 viewBox="0 0 850.4 850.4" style="enable-background:new 0 0 850.4 850.4;" xml:space="preserve">
<style type="text/css">
	.st0{fill:#1D1D1B;}
</style>
<path class="st0" d="M387.1,626.6v43.2c0,25.4,20.7,46.1,46.1,46.1c25.4,0,46.1-20.7,46.1-46.1v-43.2h134.5v-33.8H502.5
	c-17.6,0-31.7-11.7-31.7-26.3s14.2-26.3,31.7-26.3h20.7h0.7c23.8,0,46.3-7.7,63.5-21.4c18-14.6,28.1-34.4,28.1-55.6v-66.6
	c0-16.4-5.6-30.4-15.1-40.7c9.5-10.1,15.1-24.3,15.1-40.7V249c0-43.2-40-78.3-89.3-78.3s-89.3,35.1-89.3,78.3v187.9
	c0,29.2,25.9,53.1,57.6,53.1s57.6-23.9,57.6-53.1V373h7.9c15.8,0,21.4,12.4,21.4,23.9c0,0,0,65.9,0,66.8c0,10.8-5.4,21.4-15.5,29.2
	c-11,9-26.1,13.9-42.3,13.9h-0.7H502h-3.4l0,0c-34.6,1.6-62.1,27.9-62.1,59.9c0,9.5,2.5,18.5,6.5,26.3H300.9
	c-17.6,0-31.7-11.7-31.7-26.3s14.2-26.3,31.7-26.3h21.4c23.9,0,46.4-7.6,63.4-21.4c18-14.6,28.1-34.4,28.1-55.6v-66.6
	c0-16.4-5.6-30.4-15.1-40.7c9.4-10.1,15.1-24.3,15.1-40.7V249c0-43.2-40.1-78.3-89.3-78.3s-89.3,35.1-89.3,78.3v187.9
	c0,29.2,25.9,53.1,57.6,53.1s57.6-23.9,57.6-53.1V373h7.9c15.8,0,21.4,12.4,21.4,23.9c0,0,0,65.9,0,66.8c0,10.8-5.4,21.4-15.5,29.2
	c-11,9-26.1,13.9-42.3,13.9h-21.4h-3.4l0,0c-34.6,1.6-62.1,27.9-62.1,59.9c0,33.1,29.5,60.1,65.5,60.1L387.1,626.6z M518.5,436.7
	c0,10.6-10.8,19.4-23.9,19.4c-13.1,0-23.9-8.6-23.9-19.4v-133c0-10.6,10.8-19.4,23.9-19.4c13,0,23.9,8.6,23.9,19.4V436.7z
	 M552.2,339v-23v-12.1c0-29.2-25.9-53.1-57.6-53.1c-8.6,0-16.6,1.8-23.9,4.7V249c0-24.5,25-44.6,55.6-44.6c30.6,0,55.6,20,55.6,44.6
	v66.2c0,11.5-5.6,23.9-21.4,23.9H552.2z M445.6,669.8c0,6.8-5.6,12.4-12.4,12.4s-12.4-5.6-12.4-12.4v-43.2h24.8V669.8z M317.3,436.7
	c0,10.6-10.8,19.4-23.9,19.4s-23.9-8.6-23.9-19.4v-133c0-10.6,10.8-19.4,23.9-19.4c13.1,0,23.9,8.6,23.9,19.4V436.7z M351.1,339
	v-35.1c0-29.2-25.9-53.1-57.6-53.1c-8.6,0-16.6,1.8-23.9,4.7V249c0-24.5,25-44.6,55.6-44.6s55.6,20,55.6,44.6v66.2
	c0,11.5-5.6,23.9-21.4,23.9H351.1z"/>
</svg>
