<?xml version="1.0" encoding="utf-8"?>
<!-- Generator: Adobe Illustrator 24.3.0, SVG Export Plug-In . SVG Version: 6.00 Build 0)  -->
<svg version="1.1" id="Layer_1" xmlns="http://www.w3.org/2000/svg" xmlns:xlink="http://www.w3.org/1999/xlink" x="0px" y="0px"
	 viewBox="0 0 850.4 850.4" style="enable-background:new 0 0 850.4 850.4;" xml:space="preserve">
<style type="text/css">
	.st0{fill:#1D1D1B;}
</style>
<g>
	<path class="st0" d="M486,203.6v-98.1h-33.8v99.7c-20,4.5-37.4,15.5-50.2,30.6c-11.7-17.3-31.7-28.8-54.2-28.8
		c-17.8,0-34.4,7-46.8,19.6c-11.9,12.4-18.4,28.6-18,45.7V486h33.8V272.3v-0.5c-0.2-8.1,2.7-15.8,8.6-21.6
		c5.9-6.1,13.9-9.4,22.5-9.4c17.5,0,31.7,14.2,31.7,31.7v22.9c0,0.5,0,0.9,0,1.4v25.6l0,0v164h33.8V295.7
		c0.4-25,16.6-46.4,38.9-54.9v178.4v10.4v4c0,33.3,25.9,60.3,57.6,60.3s57.6-27,57.6-60.3V322v-2.9v-22.7
		C567.4,249.1,531.9,209.7,486,203.6z M533.7,322.2v111.6c0,14.6-10.8,26.6-23.9,26.6c-13.1,0-23.9-11.9-23.9-26.6v-4v-10.6V237.8
		c27.2,5.6,47.9,29.9,47.9,58.7v23.6v2H533.7z"/>
	<path class="st0" d="M528.9,617.6c3.4-9.7,5.2-20,5.2-30.6c0-50.6-41.2-91.8-91.8-91.8s-91.8,41.2-91.8,91.8
		c0,38.2,24.1,72.7,59.9,86.2l11.7-31.7c-22.7-8.3-37.8-30.4-37.8-54.4c0-32,26.1-58.1,58.1-58.1s58,26.1,58,58.1
		c0,24.3-15.3,46.3-38.2,54.7l11.5,31.7c2-0.7,4.3-1.6,6.3-2.5c2.2,22,20.9,39.4,43.7,39.4c3.4,0,6.8-0.5,10.1-1.1v2v3.6
		c0,5.6-4.5,10.4-10.1,10.4s-10.1-4.7-10.1-10.4h-33.8c0,24.3,19.6,44.1,43.9,44.1c24.3,0,43.9-19.8,43.9-44.1v-3.6v-5.4v-39.4v-5.2
		v-5.2h-0.2C564.7,635.9,549,619.9,528.9,617.6z M523.8,676.4c-5.6,0-10.1-4.5-10.1-10.1v-5.2c0-5.6,4.5-10.1,10.1-10.1
		s10.1,4.5,10.1,10.1v5.2C533.7,671.9,529.2,676.4,523.8,676.4z"/>
</g>
</svg>
