<?xml version="1.0" encoding="utf-8"?>
<!-- Generator: Adobe Illustrator 24.3.0, SVG Export Plug-In . SVG Version: 6.00 Build 0)  -->
<svg version="1.1" id="Layer_1" xmlns="http://www.w3.org/2000/svg" xmlns:xlink="http://www.w3.org/1999/xlink" x="0px" y="0px"
	 viewBox="0 0 850.4 850.4" style="enable-background:new 0 0 850.4 850.4;" xml:space="preserve">
<style type="text/css">
	.st0{fill:#1D1D1B;}
</style>
<path class="st0" d="M522.8,257.6V255c0-46.5-39.4-84.3-87.8-84.3c-25.9,0-49.3,10.8-65.2,28.1c-11.9-16.9-32-27.9-54.7-27.9
	c-53.3,0-65,43-65,63.1v310.8h33.7V233.6v-0.4c-0.2-7.8,5.6-30,31.5-30c17.8,0,32.2,13.6,32.2,30.5v311.4h33.8V255
	c0-28.5,24.3-51.9,54-51.9s54,23.3,54,51.9v1.7c-44.1,6.5-78.5,41.9-81.4,85.6h-0.2V480c0,30.5,25.9,55.3,57.6,55.3
	s57.6-24.9,57.6-55.3V290.9c25.2,7.8,43.6,30.5,43.6,57.3v215.7c0,33.1-28.1,60.1-62.5,60.1s-62.6-27-62.6-60.1h-33.8
	c0,51,43.2,92.5,96.3,92.5s96.3-41.5,96.3-92.5V348.4C600,303.4,566.7,266,522.8,257.6z M489.1,480c0,12.8-10.8,22.9-23.9,22.9
	c-13,0-23.9-10.4-23.9-22.9V348.2c0-28.3,20.5-52.1,47.9-58.4L489.1,480L489.1,480z"/>
</svg>
