<?xml version="1.0" encoding="utf-8"?>
<!-- Generator: Adobe Illustrator 24.3.0, SVG Export Plug-In . SVG Version: 6.00 Build 0)  -->
<svg version="1.1" id="Layer_1" xmlns="http://www.w3.org/2000/svg" xmlns:xlink="http://www.w3.org/1999/xlink" x="0px" y="0px"
	 viewBox="0 0 850.4 850.4" style="enable-background:new 0 0 850.4 850.4;" xml:space="preserve">
<style type="text/css">
	.st0{fill:#1D1D1B;}
</style>
<path class="st0" d="M497.1,172.5c-22.9,0-43.2,11.3-55.1,28.3c-16.2-17.4-39.6-28.3-65.7-28.3c-48.8,0-88.4,38.3-88.4,85.5v237.6
	c0,31.3,26.6,57,59,57s58.9-25.7,58.9-57v-143c0-31.3-26.6-57-58.9-57c-9,0-17.6,2-25.2,5.4V258c0-29.2,24.5-52.9,54.7-52.9
	s54.7,23.7,54.7,52.9v291.1h33.8V236c0-17,14.6-30.7,32.4-30.7c17.5,0,31.7,13.7,31.7,30.7v82.5c0,12.8-5.6,28.1-21.4,28.1h-17.8
	v32.6h17.8c15.8,0,21.4,15,21.4,28.1v142.1h33.8V407.3c0-18.1-6.1-33.5-16.4-44.4c10.4-10.9,16.4-26.3,16.4-44.4V236
	C562.6,201,533.3,172.5,497.1,172.5z M347,328.1c13.9,0,25.2,10.9,25.2,24.4v143c0,13.5-11.2,24.4-25.2,24.4s-25.2-10.9-25.2-24.4
	v-143C321.8,339.1,333.1,328.1,347,328.1z"/>
</svg>
