<?xml version="1.0" encoding="utf-8"?>
<!-- Generator: Adobe Illustrator 24.3.0, SVG Export Plug-In . SVG Version: 6.00 Build 0)  -->
<svg version="1.1" id="Layer_1" xmlns="http://www.w3.org/2000/svg" xmlns:xlink="http://www.w3.org/1999/xlink" x="0px" y="0px"
	 viewBox="0 0 850.4 850.4" style="enable-background:new 0 0 850.4 850.4;" xml:space="preserve">
<style type="text/css">
	.st0{fill:#1D1D1B;}
</style>
<path class="st0" d="M625.6,511.1V405.4c0-18-6.3-33.6-16.9-44.1c9.9-10.7,15.8-25.9,15.8-43.6v-80.9c0-35.5-29.7-64.4-66.1-64.4
	c-24.5,0-45.9,12.8-57.6,31.9c-16.9-17.5-41.4-28.7-68.4-28.7c-15.3,0-29.9,3.6-42.8,10.1c-17.3-8.3-36.9-13.3-57.6-13.3
	c-69.8,0-126.4,53.9-126.4,120.2l-0.7,202.8c0,29.5,25.2,53.5,56.2,53.5s56.2-24,56.2-53.5V363.9c0-29.5-25.2-53.5-56.2-53.5
	c-7.9,0-15.1,1.5-21.8,4.3v-22c0-48.6,41.6-88.1,92.7-88.1c9.9,0,19.1,1.5,28.1,4.1c-11.9,14.1-19.4,31.7-20.2,50.9l0,0V494
	c0,31.2,26.6,56.5,59.4,56.5c31.9,0,58-24.2,59.4-54.3l0,0v-89c0-18.6-6.5-34.4-17.3-45.3c10.8-10.9,17.3-27,17.3-45.3v-26.3l0,0
	c-0.7-31.7-14.4-60.3-36.2-81.3c3.1-0.4,6.5-0.9,9.9-0.9c32.4,0,58.7,25,58.7,55.8v283.8v0.9h33.8v-0.9l0.5-310.8
	c0-17.8,14.9-32.3,32.9-32.3c17.8,0,32.4,14.5,32.4,32.3v80.6c0,13-5.4,28.2-20.7,28.2h-17.3v32.1h17.3h0.5
	c15.8,0,21.4,14.8,21.4,27.6v98.8c-21.6,3.6-38.2,21.6-38.2,43.2v50.3c0,24.2,20.7,43.8,46.1,43.8c25.4,0,46.1-19.7,46.1-43.8v-50.5
	C645.8,532.2,637.7,519,625.6,511.1z M261.5,342.5c12.4,0,22.5,9.6,22.5,21.4v131.5c0,11.8-10.1,21.4-22.5,21.4
	c-12.4,0-22.5-9.6-22.5-21.4V363.9C239,352.1,249.1,342.5,261.5,342.5z M425.1,316.4c0,13.5-6.1,29.3-22.9,29.3h-18.5v32.1h18.5
	c16.9,0,22.9,15.8,22.9,29.3V494c0,13.5-11.5,24.4-25.6,24.4c-14.2,0-25.6-10.9-25.6-24.4V263.6c0-15.4,6.5-29.3,17.1-39.4
	c20.9,16.3,34.2,40.9,34.2,68.4L425.1,316.4L425.1,316.4z M612.1,597.5c0,6.4-5.6,11.8-12.4,11.8s-12.4-5.3-12.4-11.8v-50.3
	c0-6.4,5.6-11.8,12.4-11.8s12.4,5.3,12.4,11.8V597.5z"/>
</svg>
