<?xml version="1.0" encoding="utf-8"?>
<!-- Generator: Adobe Illustrator 24.3.0, SVG Export Plug-In . SVG Version: 6.00 Build 0)  -->
<svg version="1.1" id="Layer_1" xmlns="http://www.w3.org/2000/svg" xmlns:xlink="http://www.w3.org/1999/xlink" x="0px" y="0px"
	 viewBox="0 0 850.4 850.4" style="enable-background:new 0 0 850.4 850.4;" xml:space="preserve">
<style type="text/css">
	.st0{fill:#1D1D1B;}
</style>
<g>
	<path class="st0" d="M674.3,485.4c0,16.7-15.3,30.1-32.9,30.1c-8.5,0-16.6-3.2-22.5-9c-5.6-5.6-8.8-12.8-8.5-20.7V179.2h-33.8
		v306.2c0,16.7-14.2,30.1-31.7,30.1c-8.5,0-16.6-3.2-22.5-9c-5.6-5.6-8.8-12.8-8.5-20.7V237.1c0-34.4-29.5-62.2-65.5-62.2
		c-19.6,0-37.1,8.1-49,20.9c-12.1-12.4-29.5-20.3-48.6-20.3c-18,0-34.6,6.6-47,18.8c-2.7,2.8-5.2,5.6-7.4,8.5
		c-16.2-16.9-39.4-27.4-65.2-27.4c-47.9,0-86.8,36.3-88.2,81.4l0,0v236.1c0,30.8,26.6,56,58.9,56s58.9-25.2,58.9-56V333.5
		c0-30.8-26.5-56-58.9-56c-9,0-17.6,1.9-25.2,5.3v-0.4v-22.7c0-28.6,24.5-51.9,54.7-51.9c30.1,0,54.7,23.3,54.7,51.9v285.9h33.8
		V237.4c-0.2-7.7,2.7-15,8.6-20.5c6.1-5.8,14.2-9.2,22.9-9.2c17.8,0,32.2,13.5,32.2,30.1v308.3h33.8V237.4
		c0-16.7,14.2-30.1,31.7-30.1c17.5,0,31.7,13.5,31.7,30.1v248.1c-0.4,16.5,6.1,31.8,18,43.6c12.4,12,29,18.6,46.8,18.6
		c19.1,0,36.5-7.9,48.4-20.3c0.5,0.4,1.1,1.1,1.6,1.5c3.8,3.6,7.9,6.8,12.4,9.4c-3.6,6.2-5.6,13.5-5.6,20.9v50.2
		c0,24.1,20.7,43.8,46.1,43.8c25.4,0,46.1-19.7,46.1-43.8v-50.2c0-10-3.6-19.2-9.7-26.7c14.2-11.3,23-28.4,23-47.4V179.2h-33.8
		L674.3,485.4z M201.1,309.4c13.9,0,25.2,10.7,25.2,23.9v159.6c0,13.2-11.2,23.9-25.2,23.9s-25.2-10.7-25.2-23.9V333.1
		C175.9,320.1,187.1,309.4,201.1,309.4z M659.6,609.6c0,6.4-5.6,11.8-12.4,11.8s-12.4-5.3-12.4-11.8v-50.2c0-6.4,5.6-11.8,12.4-11.8
		s12.4,5.3,12.4,11.8V609.6z"/>
</g>
</svg>
