<?xml version="1.0" encoding="utf-8"?>
<!-- Generator: Adobe Illustrator 24.3.0, SVG Export Plug-In . SVG Version: 6.00 Build 0)  -->
<svg version="1.1" id="Layer_1" xmlns="http://www.w3.org/2000/svg" xmlns:xlink="http://www.w3.org/1999/xlink" x="0px" y="0px"
	 viewBox="0 0 850.4 850.4" style="enable-background:new 0 0 850.4 850.4;" xml:space="preserve">
<style type="text/css">
	.st0{fill:#1D1D1B;}
</style>
<path class="st0" d="M647.6,565c-1.1-8.6-4.7-16.5-10.1-22.8l0.5-268.5c0-58.6-48.8-106.4-109.1-106.4c-14,0-27.2,2.6-39.4,7.2
	c-11.9-4.6-25-7.2-38.7-7.2c-34.6,0-65.5,16.5-84.8,41.7c-15.5-25-43.6-41.7-75.6-41.7c-48.8,0-88.4,38.6-88.4,86.2v239.4
	c0,31.6,26.6,57.5,58.9,57.5s59-25.9,59-57.5V344.2c0-31.6-26.6-57.5-59-57.5c-9,0-17.6,2-25.2,5.5v-38.8
	c0-29.4,24.5-53.3,54.7-53.3c30.1,0,54.7,23.9,54.7,53.3V547h33.8V270.3c0-38.6,32-70,71.3-70.2c-18.7,19.1-30.1,45-30.1,73.5v213.9
	h0.2c2,35.1,31.9,63,68.2,63c36.4,0,66.1-27.9,68.2-63h0.2V270.3c0-27.2-10.8-51.8-28.3-70.2c0.2,0,0.5,0,0.7,0
	c41.4,0,75.4,32.9,75.4,73.5L604,526.3c-0.5,0-1.1,0-1.6,0c-25.4,0-46.1,20.2-46.1,45v4.2c0,24.8,20.7,45,46.1,45
	c4.3,0,8.3-0.7,12.4-1.8v7.2c0,6.4-5.6,11.6-12.4,11.6s-12.4-5.3-12.4-11.6h-33.8c0,24.6,20.7,44.5,46.1,44.5s46.1-20,46.1-44.5
	L647.6,565z M261.1,319.7c13.9,0,25.2,11,25.2,24.6V493c0,13.6-11.2,24.6-25.2,24.6c-14,0-25.2-11-25.2-24.6V344.2
	C235.9,330.6,247.1,319.7,261.1,319.7z M523,483.8c0,18.6-15.5,33.8-34.6,33.8s-34.6-15.1-34.6-33.8V273.6
	c0-26.3,14.4-49.6,35.8-62.5c20,12.5,33.5,34.4,33.5,59.2V483.8z M614.3,575c0,6.6-5.6,12.1-12.4,12.1s-12.4-5.5-12.4-12.1v-4.2
	c0-6.6,5.6-12.1,12.4-12.1s12.4,5.5,12.4,12.1V575z"/>
</svg>
