<?xml version="1.0" encoding="utf-8"?>
<!-- Generator: Adobe Illustrator 24.3.0, SVG Export Plug-In . SVG Version: 6.00 Build 0)  -->
<svg version="1.1" id="Layer_1" xmlns="http://www.w3.org/2000/svg" xmlns:xlink="http://www.w3.org/1999/xlink" x="0px" y="0px"
	 viewBox="0 0 850.4 850.4" style="enable-background:new 0 0 850.4 850.4;" xml:space="preserve">
<style type="text/css">
	.st0{fill:#1D1D1B;}
</style>
<g>
	<path class="st0" d="M528,634.6c0,8.6-9.5,15.8-20.7,15.8s-20.7-7.2-20.7-15.8v-82.1l0,0c0-11.9-4.5-23.4-13.3-32.2
		c-10.1-10.6-25-16.6-40.7-16.6c-14.4,0-27.4,5.2-37.4,13.5c-9.9-8.6-23.4-13.5-37.4-13.5c-30.1,0-54.4,22.3-54.4,49.5v125.8h33.8
		V553.2c0-8.5,9.4-15.8,20.7-15.8c6.5,0,12.6,2.5,16.4,6.3c1.8,1.8,3.8,4.9,3.8,8.8v126.5l0,0h33.8l0,0V553.2
		c0-8.5,9.5-15.8,20.7-15.8c6.5,0,12.6,2.5,16.4,6.3c1.8,1.8,3.8,4.7,3.8,8.8l0,0v82.1c0,27.2,24.5,49.5,54.4,49.5
		s54.5-22.3,54.5-49.5V511.5H528L528,634.6L528,634.6z"/>
	<path class="st0" d="M528.2,178.3V462H406.3l-0.2-106c-3.1-29.7-28.1-52.7-58.7-52.7c-31.5,0-57.1,24.8-58.9,55.6l0,0v136.8h33.8
		V362.4c0-14,11.2-25.2,25.2-25.2c14,0,25.2,11.2,25.2,25.2v133.4H562V178.3H528.2z"/>
</g>
</svg>
