<?xml version="1.0" encoding="utf-8"?>
<!-- Generator: Adobe Illustrator 24.3.0, SVG Export Plug-In . SVG Version: 6.00 Build 0)  -->
<svg version="1.1" id="Layer_1" xmlns="http://www.w3.org/2000/svg" xmlns:xlink="http://www.w3.org/1999/xlink" x="0px" y="0px"
	 viewBox="0 0 850.4 850.4" style="enable-background:new 0 0 850.4 850.4;" xml:space="preserve">
<style type="text/css">
	.st0{fill:#1D1D1B;}
</style>
<path class="st0" d="M614.9,231.2c-1.1-39.1-33.3-70.6-72.9-70.6c-38.9,0-70.6,30.4-72.9,68.6l-0.2,197.8h-47.7v-74.2
	c0-32.4-26.5-58.9-58.9-58.9s-58.9,26.5-58.9,58.9v105.8H337V352.7c0-13.9,11.2-25.2,25.2-25.2s25.2,11.2,25.2,25.2v108h193.7v32.4
	c0,30.1-24.5,54.7-54.7,54.7H323.9c-30.1,0-54.7-24.5-54.7-54.7V176.8h-33.7v316.5c0,47.9,38.5,87.1,85.9,88.2l0,0H521
	c-0.2,1.4-0.2,9.2-0.2,9.2c0,25.4,20.7,46.1,46.1,46.1c4.3,0,8.3-0.7,12.4-1.8v9.5c0,7.9-5.6,14.4-12.4,14.4s-12.4-6.5-12.4-14.4
	h-33.8c0,26.5,20.7,48.1,46.1,48.1c25.4,0,46.1-21.6,46.1-48.1v-61.7h-0.2c-0.9-13.9-7.7-26.1-18.2-34
	c12.4-15.3,19.8-34.7,19.8-55.8L614.9,231.2L614.9,231.2z M567.4,603.1c-6.8,0-12.4-5.6-12.4-12.4v-5.2c0-6.8,5.6-12.4,12.4-12.4
	s12.4,5.6,12.4,12.4v5.2C579.5,597.5,574.1,603.1,567.4,603.1z M581.1,426.9h-78.5V233.4c0-21.4,17.5-38.9,39.1-38.9
	c21.6,0,39.2,17.3,39.2,38.9L581.1,426.9z"/>
</svg>
