<?xml version="1.0" encoding="utf-8"?>
<!-- Generator: Adobe Illustrator 24.3.0, SVG Export Plug-In . SVG Version: 6.00 Build 0)  -->
<svg version="1.1" id="Layer_1" xmlns="http://www.w3.org/2000/svg" xmlns:xlink="http://www.w3.org/1999/xlink" x="0px" y="0px"
	 viewBox="0 0 850.4 850.4" style="enable-background:new 0 0 850.4 850.4;" xml:space="preserve">
<style type="text/css">
	.st0{fill:#1D1D1B;}
</style>
<g>
	<path class="st0" d="M617.5,616.2V178.5h-33.8v0.2H583v304.7h-61.2V244.9h-0.2c-2-38.2-34-68.6-72.9-68.6
		c-25.2,0-47.5,12.8-60.5,31.9c-16.2-18.9-40.3-30.8-67.1-30.8c-47.9,0-86.8,38.2-88.2,85.7l0,0v198c0,32.4,26.6,59,58.9,59
		s59-26.6,59-59V343.2c0-32.4-26.6-59-59-59c-9,0-17.5,2-25.2,5.6v-0.4v-23.8c0-30.2,24.5-54.7,54.7-54.7c29.9,0,54,24.1,54.7,53.8
		V516l0,0v0.9h33.8V248.7c0-21.4,17.6-38.9,39.1-38.9c21.6,0,39.1,17.3,39.1,38.9v268.2h21.8c-2.7,39.4-35.5,70.6-75.6,70.6h-5.4
		v33.8h97.9c-0.9,3.6-1.6,7.2-1.6,11v10.1c0,23.2,18.9,42.1,42.1,42.1c0,0,13.7-0.2,16.4-0.9v5.6c0,6.1-5.6,11-12.4,11
		s-12.4-5-12.4-11h-33.8c0,24.8,20.7,44.8,46.1,44.8s46.1-20,46.1-44.8v-60.1h-0.2c-0.2-5-1.3-9.5-3.4-13.7h3.6V616.2z M291.7,318
		c14,0,25.2,11.2,25.2,25.2v117.9c0,13.9-11.2,25.2-25.2,25.2c-13.9,0-25.2-11.2-25.2-25.2V343.2C266.5,329.3,277.9,318,291.7,318z
		 M543.7,517.2h39.8v70.6h-70.2C531.1,569.4,542.5,544.6,543.7,517.2z M575.4,651h-8.1c-4.5,0-8.3-3.8-8.3-8.3v-10.1
		c0-4.5,3.8-8.3,8.3-8.3h8.1c4.5,0,8.3,3.8,8.3,8.3v10.1C583.7,647.4,579.9,651,575.4,651z"/>
</g>
</svg>
