<?xml version="1.0" encoding="utf-8"?>
<!-- Generator: Adobe Illustrator 24.3.0, SVG Export Plug-In . SVG Version: 6.00 Build 0)  -->
<svg version="1.1" id="Layer_1" xmlns="http://www.w3.org/2000/svg" xmlns:xlink="http://www.w3.org/1999/xlink" x="0px" y="0px"
	 viewBox="0 0 850.4 850.4" style="enable-background:new 0 0 850.4 850.4;" xml:space="preserve">
<style type="text/css">
	.st0{fill:#1D1D1B;}
</style>
<g>
	<path class="st0" d="M533.3,488.2v-40.8l0,0c-0.2-42-28.8-51.5-47.7-53.5l0,0l0,0c-0.5,0-0.7,0-1.1,0c-8.6-2.7-18.4-8.9-18.4-23.8
		c0-13.5,7.4-27.1,23.4-29.5l0,0c0.9,0,1.6-0.2,2.5-0.4c0.9,0,1.6-0.2,2.5-0.2v-0.2c23.4-4.4,38.5-24.2,38.7-51.9l0,0v-42.8
		c0-40.4-33.3-73-74-73c-41.2,0-74.7,32.9-74.7,73v303.8h33.8V244.9c0-22,18.5-39.7,41-39.7c22.3,0,40.3,17.8,40.3,39.7v41.3l0,0
		c0,6.9-1.4,18.4-11,20.6c-32.4,2.9-56.2,28.9-56.2,62.8c0,32.2,23.9,55.9,58.5,58.8c6.5,2.4,9.2,8,8.8,21.5l0,0v38.2
		c0,13.1-5.6,28.6-21.4,28.6h-17.6v33.3h17.8c15.8,0,21.4,15.3,21.4,28.4v10.9c0,34.4-28.4,62.2-63,62.2h-20.5
		c-36.2,0-65.7-29.1-65.7-64.8V179.6h-33.8v406.9c0,50.4,38.7,92.1,88.4,97.4l40.3,0.7v-0.2c49.5-4.2,88.4-45.3,88.4-95v-10.9l0,0
		v-0.2c0,0-0.7-35.3-16.4-44.8C527,522.3,533.3,506.4,533.3,488.2z"/>
</g>
</svg>
