<?xml version="1.0" encoding="utf-8"?>
<!-- Generator: Adobe Illustrator 24.3.0, SVG Export Plug-In . SVG Version: 6.00 Build 0)  -->
<svg version="1.1" id="Layer_1" xmlns="http://www.w3.org/2000/svg" xmlns:xlink="http://www.w3.org/1999/xlink" x="0px" y="0px"
	 viewBox="0 0 850.4 850.4" style="enable-background:new 0 0 850.4 850.4;" xml:space="preserve">
<style type="text/css">
	.st0{fill:#1D1D1B;}
</style>
<g>
	<path class="st0" d="M511.8,581.3c3.4-9.7,5.2-20,5.2-30.6c0-50.6-41.2-91.8-91.8-91.8s-91.8,41.2-91.8,91.8
		c0,38.2,24.1,72.7,59.9,86.2l11.7-31.7c-22.7-8.3-37.8-30.4-37.8-54.4c0-32,26.1-58.1,58-58.1s58.1,26.1,58.1,58.1
		c0,24.3-15.3,46.3-38.2,54.7l11.5,31.7c2-0.7,4.3-1.6,6.3-2.5c2.2,22,20.9,39.4,43.6,39.4c3.4,0,6.8-0.5,10.1-1.1v5.6
		c0,5.6-4.5,10.4-10.1,10.4s-10.1-4.7-10.1-10.4h-33.8c0,24.3,19.6,44.1,43.9,44.1c24.3,0,43.9-19.8,43.9-44.1v-59h-0.2
		C547.6,599.6,531.6,583.6,511.8,581.3z M506.4,640.1c-5.6,0-10.1-4.5-10.1-10.1v-5.2c0-5.6,4.5-10.1,10.1-10.1
		c5.6,0,10.1,4.5,10.1,10.1v5.2C516.5,635.6,512,640.1,506.4,640.1z"/>
	<path class="st0" d="M382.4,441.2C335,423.4,303,377.5,303,326.6c0-67.3,54.7-122.2,122.2-122.2c67.3,0,122.2,54.7,122.2,122.2
		c0,51.1-32.2,97.2-80.1,114.8l11.5,31.7c61.2-22.3,102.4-81.2,102.4-146.5c0-86-70-155.9-155.9-155.9s-155.9,70-155.9,155.9
		c0,64.8,40.7,123.5,101.5,146L382.4,441.2z"/>
</g>
</svg>
