<?xml version="1.0" encoding="utf-8"?>
<!-- Generator: Adobe Illustrator 24.3.0, SVG Export Plug-In . SVG Version: 6.00 Build 0)  -->
<svg version="1.1" id="Layer_1" xmlns="http://www.w3.org/2000/svg" xmlns:xlink="http://www.w3.org/1999/xlink" x="0px" y="0px"
	 viewBox="0 0 850.4 850.4" style="enable-background:new 0 0 850.4 850.4;" xml:space="preserve">
<style type="text/css">
	.st0{fill:#1D1D1B;}
</style>
<path class="st0" d="M620.9,368.9c0-108-87.8-195.8-195.8-195.8s-195.7,87.8-195.7,195.8c0,81.4,51.3,155.2,127.6,183.6l11.7-31.7
	c-63-23.4-105.5-84.6-105.5-151.9c0-89.3,72.7-162,162-162s162,72.7,162,162c0,67.3-42.1,128-105.1,151.6c-21.6,3.8-38,22.7-38,45.2
	v2.2c0,25.4,20.7,46.1,46.1,46.1c4.3,0,8.3-0.7,12.4-1.8v6.7c0,6.1-5.6,11-12.4,11s-12.4-5-12.4-11h-33.8
	c0,24.8,20.7,44.8,46.1,44.8c25.4,0,46.1-20,46.1-44.8v-56c0,0,1.3-13.7-10.6-26.3C584,501.9,620.9,438.2,620.9,368.9z M490.4,580.6
	c-6.8,0-12.4-5.6-12.4-12.4V566c0-6.8,5.6-12.4,12.4-12.4s12.4,5.6,12.4,12.4v2.2C502.8,575,497.2,580.6,490.4,580.6z"/>
</svg>
