<?xml version="1.0" encoding="utf-8"?>
<!-- Generator: Adobe Illustrator 24.3.0, SVG Export Plug-In . SVG Version: 6.00 Build 0)  -->
<svg version="1.1" id="Layer_1" xmlns="http://www.w3.org/2000/svg" xmlns:xlink="http://www.w3.org/1999/xlink" x="0px" y="0px"
	 viewBox="0 0 850.4 850.4" style="enable-background:new 0 0 850.4 850.4;" xml:space="preserve">
<style type="text/css">
	.st0{fill:#1D1D1B;}
</style>
<g>
	<path class="st0" d="M547.6,549.2L547.6,549.2l-8.1-0.2v-6.1c0-25.1-20.9-45.3-46.8-45.3c-25.2,0-45.7,19.4-46.8,43.6l0,0v8.1h-7.6
		c-23.4,0-40.7,17.7-42.1,42.5v46.4c1.8,20.9,19.8,37.3,41.9,37.3c10.1,0,19.4-3.5,26.8-9.4c7.9,5.9,17.5,9.4,28.1,9.4
		c25.9,0,46.8-20.5,46.8-46v-47.7h3.8c8.8,0,10.1,7.4,10.1,12v77.4h33.8v-77.4C587.2,569.2,570.8,551.2,547.6,549.2z M492.7,530.2
		c7.2,0,13,5.7,13,12.6v6.1h-26.3v-6.1C479.6,535.9,485.5,530.2,492.7,530.2z M437.8,642.5c-4.5,0-8.1-3.5-8.1-7.8V595
		c0-2.2,0.5-13.1,8.6-13.1h7.6v54.7C445,639.9,441.6,642.5,437.8,642.5z M505.7,629.4c0,7.2-5.9,13.3-13.1,13.3
		c-6.5,0-11.7-4.6-12.8-10.9l-0.2-50.1H506L505.7,629.4z"/>
	<path class="st0" d="M553.4,178.6v247c0,17-14.2,30.7-31.7,30.7c-17.6,0-31.7-13.7-31.7-30.7V234.2c0.4-16.8-6.1-32.5-18-44.5
		c-12.4-12.2-29-19-46.8-19c-19.1,0-36.4,8.1-48.4,20.7c-0.4-0.4-1.1-1.1-1.6-1.5c-12.4-12.2-29-19-46.8-19
		c-36.2,0-65.5,28.6-65.5,63.4v312.4h33.8V234.2c0-17,14.2-30.7,31.7-30.7c8.6,0,16.6,3.3,22.5,9.2c5.6,5.7,8.8,13.1,8.6,21.1v312.9
		h33.8V234.2c0-17,14.2-30.7,31.7-30.7c8.6,0,16.6,3.3,22.5,9.2c5.6,5.7,8.8,13.1,8.6,21.1v192.1c0,35.1,29.5,63.4,65.5,63.4
		s65.5-28.6,65.5-63.4V178.6H553.4z"/>
</g>
</svg>
