<?xml version="1.0" encoding="utf-8"?>
<!-- Generator: Adobe Illustrator 24.3.0, SVG Export Plug-In . SVG Version: 6.00 Build 0)  -->
<svg version="1.1" id="Layer_1" xmlns="http://www.w3.org/2000/svg" xmlns:xlink="http://www.w3.org/1999/xlink" x="0px" y="0px"
	 viewBox="0 0 850.4 850.4" style="enable-background:new 0 0 850.4 850.4;" xml:space="preserve">
<style type="text/css">
	.st0{fill:#1D1D1B;}
</style>
<g>
	<path class="st0" d="M562.1,652.4h-49.3v-45.7c0-23.6-18.9-42.8-42.3-42.8c-23.4,0-42.3,19.1-42.3,42.8v79.4H462v-79.7
		c0-4.9,3.8-9,8.6-9c4.7,0,8.5,4.1,8.5,9v79.7h116.8V522.4h-33.8V652.4z"/>
	<path class="st0" d="M562.1,178.4v275.1c0,19.1-15.5,34.6-34.6,34.6c-19.1,0-34.7-15.5-34.7-34.6V243.4c0.5-18-6.3-34.9-18.9-47.9
		c-12.8-13.3-30.1-20.5-48.8-20.5c-20.2,0-38.5,9-51.1,22.9c-0.7-0.9-1.6-1.8-2.2-2.5c-12.8-13.3-30.1-20.5-48.8-20.5
		c-37.6,0-68.4,30.6-68.4,68.4v274.1h33.8V243.6c0-19.1,15.5-34.7,34.6-34.7c9.4,0,18,3.6,24.5,10.4c6.3,6.3,9.5,14.8,9.2,23.6
		v274.5h33.8V243.6c0-19.1,15.5-34.7,34.6-34.7c9.5,0,18,3.6,24.5,10.4c6.3,6.3,9.4,14.8,9.2,23.6v210.8c0,37.6,30.6,68.4,68.4,68.4
		c37.8,0,68.4-30.6,68.4-68.4V178.6h-33.5L562.1,178.4L562.1,178.4z"/>
</g>
</svg>
