<?xml version="1.0" encoding="utf-8"?>
<!-- Generator: Adobe Illustrator 24.3.0, SVG Export Plug-In . SVG Version: 6.00 Build 0)  -->
<svg version="1.1" id="Layer_1" xmlns="http://www.w3.org/2000/svg" xmlns:xlink="http://www.w3.org/1999/xlink" x="0px" y="0px"
	 viewBox="0 0 850.4 850.4" style="enable-background:new 0 0 850.4 850.4;" xml:space="preserve">
<style type="text/css">
	.st0{fill:#1D1D1B;}
</style>
<g>
	<path class="st0" d="M497.9,580.4h-10.6V568c0-23.6-19.1-42.8-42.8-42.8s-42.8,19.1-42.8,42.8v12.4h-0.2h-10.8
		c-23.4,0-40.3,18.9-40.3,45l-0.2,21.2c0,23.6,19.1,42.7,42.8,42.7c9.7,0,18.7-3.4,25.9-8.8c7.2,5.4,16.2,8.8,25.9,8.8
		c22.3,0,40.5-16.9,42.5-38.7h0.2v-36.5h10.6c5.6,0,5.9,8.5,5.9,10.3v64.8h33.8v-64.8C537.2,599,520.6,580.4,497.9,580.4z
		 M435.5,568c0-4.9,4.1-9,9-9s9,4.1,9,9v12.4h-18V568z M392.8,655.7c-4.3,0-7.6-2.9-8.8-7v-23.4c0-1.8,0.2-11.2,6.5-11.2h10.8h0.2
		v32.4C401.8,651.7,397.7,655.7,392.8,655.7z M453.5,646.7c0,5-4.1,9-9,9s-9-4-9-9v-32.4h18V646.7z"/>
	<path class="st0" d="M503.5,179v120.4c0,27.2-18.7,49.9-43.9,56.2V227.8l0,0c-1.6-27.7-24.8-49.7-52.9-49.7s-51.3,22-52.9,49.7l0,0
		v71.6c0,43.9,31.1,80.6,72.2,89.6v88.6h-66.8v-82.8c0-32.4-26.5-59-58.9-59s-58.9,26.6-58.9,59v116.3h33.7V394.7
		c0-14,11.2-25.2,25.2-25.2c13.9,0,25.2,11.2,25.2,25.2v116.3h211.9V179H503.5z M387.6,299.3v-68.4c0-10.6,8.6-19.1,19.1-19.1
		c10.6,0,19.1,8.5,19.1,19.1v122.8C403.6,345.9,387.6,324.5,387.6,299.3z M459.6,390c16.4-2.5,31.5-9.5,43.9-19.6v107.1h-43.9V390z"
		/>
</g>
</svg>
