<?xml version="1.0" encoding="utf-8"?>
<!-- Generator: Adobe Illustrator 24.3.0, SVG Export Plug-In . SVG Version: 6.00 Build 0)  -->
<svg version="1.1" id="Layer_1" xmlns="http://www.w3.org/2000/svg" xmlns:xlink="http://www.w3.org/1999/xlink" x="0px" y="0px"
	 viewBox="0 0 850.4 850.4" style="enable-background:new 0 0 850.4 850.4;" xml:space="preserve">
<style type="text/css">
	.st0{fill:#1D1D1B;}
</style>
<g>
	<path class="st0" d="M570.5,581.3L570.5,581.3c1.1-15.8-3.8-30.4-13.7-41.2c-10.6-11.2-25.9-17.5-42.5-17.5
		c-31.1,0-56.5,25.9-56.5,57.6h0.5v19.1H492l-0.2-22.1c1.4-11.7,11-20.9,22.5-20.9c7.2,0,13.7,2.5,17.8,7c3.6,3.8,5.2,8.8,5,15.1
		l0,0c0,6.1-11.5,12.8-27.7,16.4l0,0c-31.1,8.1-50.6,26.8-51.3,49.5l0,0V692h113.6v-74.7h-26.8C565.1,605.8,569.6,590.5,570.5,581.3
		z M537.7,658.2h-46.1v-11.9l0,0c0-0.2,0-0.5,0-0.7c0-5.8,10.1-14.2,27.2-18.4l0,0c7.2-1.8,13.5-3.8,18.9-6.3V658.2z"/>
	<path class="st0" d="M539.7,179v120.4c0,27.2-18.7,49.9-43.9,56.2V227.8l0,0c-1.6-27.7-24.8-49.7-52.9-49.7s-51.3,22-52.9,49.7l0,0
		v71.8c0,43.9,31.1,80.5,72.2,89.5v88.6h-66.8V395c0-32.4-26.5-58.9-58.9-58.9s-59.4,26.3-59.4,58.7v116.3h33.8V394.7
		c0-14,11.2-25.2,25.2-25.2c14,0,25.2,11.2,25.2,25.2v116.3h211.9V179H539.7z M423.6,299.3v-68.4c0-10.6,8.6-19.1,19.1-19.1
		c10.6,0,19.1,8.6,19.1,19.1v122.9C439.6,345.9,423.6,324.5,423.6,299.3z M495.8,390c16.4-2.5,31.5-9.5,43.9-19.6v107.1h-43.9
		L495.8,390L495.8,390z"/>
</g>
</svg>
