<?xml version="1.0" encoding="utf-8"?>
<!-- Generator: Adobe Illustrator 24.3.0, SVG Export Plug-In . SVG Version: 6.00 Build 0)  -->
<svg version="1.1" id="Layer_1" xmlns="http://www.w3.org/2000/svg" xmlns:xlink="http://www.w3.org/1999/xlink" x="0px" y="0px"
	 viewBox="0 0 850.4 850.4" style="enable-background:new 0 0 850.4 850.4;" xml:space="preserve">
<style type="text/css">
	.st0{fill:#1D1D1B;}
</style>
<path class="st0" d="M493.8,289.8v-57.9c0-32.2-30.8-58.3-68.6-58.3s-68.6,26.1-68.6,58.3c0,0,0,73.2,0,73.7
	c0,15.8,7.9,31.1,21.8,41.9c12.4,9.5,28.1,14.9,45.2,15.6l0,0c10.4,0,20.2,3,27.2,8.4c3.4,2.6,9.2,8.4,9.2,16.6
	c0,0.4,0,103.5,0,103.5c0,14.3-15.8,25.9-34.9,25.9s-34.9-11.7-34.9-25.9v-65.9h-33.8v65.9c0,32.2,30.8,58.3,68.6,58.3
	s68.6-26.1,68.6-58.3l-0.4-110.6c0-13.2-9.5-25.5-21.4-34.8c-12.1-9.5-28.1-14.9-45.2-15.6l0,0c-10.4,0-20.2-3-27.2-8.4
	c-3.4-2.6-9.2-8.4-9.2-16.6c0-0.4,0-73.9,0-73.9c0-14.3,15.8-25.9,34.9-25.9s34.9,11.7,34.9,25.9v57.9h33.8V289.8z"/>
</svg>
