<?xml version="1.0" encoding="utf-8"?>
<!-- Generator: Adobe Illustrator 24.3.0, SVG Export Plug-In . SVG Version: 6.00 Build 0)  -->
<svg version="1.1" id="Layer_1" xmlns="http://www.w3.org/2000/svg" xmlns:xlink="http://www.w3.org/1999/xlink" x="0px" y="0px"
	 viewBox="0 0 850.4 850.4" style="enable-background:new 0 0 850.4 850.4;" xml:space="preserve">
<style type="text/css">
	.st0{fill:#1D1D1B;}
</style>
<path class="st0" d="M493.8,294.6v-60.3c0-33.5-30.8-60.8-68.6-60.8s-68.6,27-68.6,60.8c0,0,0,76.3,0,76.7
	c0,16.4,7.9,32.4,21.8,43.7c12.4,9.9,28.1,15.5,45.2,16.2l0,0c10.4,0,20.2,3.1,27.2,8.8c3.4,2.7,9.2,8.8,9.2,17.3
	c0,0.4,0,107.8,0,107.8c0,14.9-15.8,27-34.9,27s-34.9-12.1-34.9-27v-68.6h-33.8v68.6c0,22.5,13.9,42.3,34.6,52.9
	c-6.8,7.4-11,17.3-11.9,27.7l0,0v0.7c-0.2,2.2,0,59,0,59c0,24.5,20.7,44.5,46.1,44.5c25.4,0,46.1-20,46.1-44.5v-59.6
	c0,0,1.4-20-12.4-27.7c20.7-10.6,34.6-30.1,34.6-52.9l-0.4-115.2c-2-13.7-9.4-26.5-21.4-36.2c-12.1-9.9-28.1-15.5-45.2-16.2l0,0
	c-10.4,0-20.2-3.1-27.2-8.8c-3.4-2.7-9.2-8.8-9.2-17.3c0-0.5,0-77,0-77c0-14.8,15.8-27,34.9-27s34.9,12.2,34.9,27v60.3h33.8
	L493.8,294.6L493.8,294.6z M437.8,644.7c0,5.9-5.6,10.8-12.4,10.8s-12.4-4.7-12.4-10.8v-57.4c0-3.4,2.5-10.4,13-10.4
	c6.8,0,11.7,4.7,11.7,10.8V644.7z"/>
</svg>
