<?xml version="1.0" encoding="utf-8"?>
<!-- Generator: Adobe Illustrator 24.3.0, SVG Export Plug-In . SVG Version: 6.00 Build 0)  -->
<svg version="1.1" id="Layer_1" xmlns="http://www.w3.org/2000/svg" xmlns:xlink="http://www.w3.org/1999/xlink" x="0px" y="0px"
	 viewBox="0 0 850.4 850.4" style="enable-background:new 0 0 850.4 850.4;" xml:space="preserve">
<style type="text/css">
	.st0{fill:#1D1D1B;}
</style>
<g>
	<path class="st0" d="M588.5,173.9c-32.4,0-59,25.6-59,56.9V393c0,31.3,26.5,56.9,59,56.9c9,0,17.5-2,25.2-5.4v0.4v23
		c0,29.1-24.5,52.8-54.7,52.8s-54.7-23.7-54.7-52.8l-0.2-291.5h-33.8v311.2c0,16.9-14.2,30.6-31.7,30.6c-8.6,0-16.6-3.3-22.5-9.1
		c-5.6-5.6-8.8-13-8.6-21.1V235.3c0-35-29.5-63.2-65.5-63.2s-65.7,28.5-65.7,63.2v311.9h33.8V235.3c0-16.9,14.2-30.6,31.7-30.6
		s31.7,13.7,31.7,30.6v252.1c-0.4,16.7,6.1,32.4,18,44.3c12.4,12.2,29,18.9,46.8,18.9c22.3,0,41.9-10.9,53.8-27.1
		c16.2,18,40.1,29.5,66.6,29.5c20.7,0,39.6-6.9,54.7-18.2v58.4c0,29.1-24.5,52.6-54.5,52.8H291.3c-30.1,0-54.4-23.7-54.4-52.8V176.5
		h-33.8v416.8c0,43.2,33.5,79.1,76.7,84.5l284.2,0.9v-0.2c46.4-2.6,83.2-39.7,83.2-85.1V231C647.5,199.5,620.9,173.9,588.5,173.9z
		 M613.7,239.7v4.8v135.3v13.5c0,13.5-11.2,24.3-25.2,24.3c-14,0-25.2-10.9-25.2-24.3v-9.3v-4.1V244.2v-8v-5.4
		c0-13.5,11.2-24.3,25.2-24.3c14,0,25.2,10.9,25.2,24.3v1.5V239.7z"/>
</g>
</svg>
