<?xml version="1.0" encoding="utf-8"?>
<!-- Generator: Adobe Illustrator 24.3.0, SVG Export Plug-In . SVG Version: 6.00 Build 0)  -->
<svg version="1.1" id="Layer_1" xmlns="http://www.w3.org/2000/svg" xmlns:xlink="http://www.w3.org/1999/xlink" x="0px" y="0px"
	 viewBox="0 0 850.4 850.4" style="enable-background:new 0 0 850.4 850.4;" xml:space="preserve">
<style type="text/css">
	.st0{fill:#1D1D1B;}
</style>
<g>
	<path class="st0" d="M537.9,591.5c-4.3,0-8.3,0.7-12.4,1.8v-77.6h-33.7v112.7c0,8.8-7.2,16-16,16s-16-7.2-16-16v-44.3
		c0-39.1-31.7-70.9-70.9-70.9s-70.9,31.7-70.9,70.9l0.7,47.9c0,25.4,20.7,46.1,46.1,46.1c25.4,0,46.1-20.7,46.1-46.1v-12.1
		c0-25.4-20.7-46.1-46.1-46.1c-4.1,0-8.1,0.7-11.9,1.6c3.8-16.4,18.7-28.6,36.2-28.6c20.5,0,37.1,16.6,37.1,37.1v44.3
		c0,27.4,22.3,49.7,49.7,49.7c5.9,0,11.5-1.1,16.9-2.9c4.3,21.1,23,37.1,45.2,37.1c25.4,0,46.1-20.7,46.1-46.1v-28.6
		C584,612.2,563.3,591.5,537.9,591.5z M364.9,607.5c6.8,0,12.4,5.6,12.4,12.4V632c0,6.8-5.6,12.4-12.4,12.4s-12.4-5.6-12.4-12.4
		v-12.1C352.5,612.9,357.9,607.5,364.9,607.5z M550.3,666.2c0,6.8-5.6,12.4-12.4,12.4s-12.4-5.6-12.4-12.4v-28.6
		c0-6.8,5.6-12.4,12.4-12.4s12.4,5.6,12.4,12.4V666.2z"/>
	<path class="st0" d="M359.9,205.2c-11.9,14.2-19.6,32.2-21.4,51.7l-0.4,187.9c0,33.3,25.9,60.3,57.6,60.3s57.6-27,57.6-60.3V265.2
		c0-22.7-8.1-43.6-21.8-60.1c0,0,0,0,0.2,0c33.1,0,60.1,27,60.1,60.1v236.5h33.7V265.2c0-51.7-42.1-93.8-93.8-93.8
		c-12.8,0-25,2.5-36,7.2c-11-4.7-23.2-7.2-36-7.2c-50.4,0-91.6,39.8-93.6,89.8l0,0v242.3h33.8V265.2
		C299.6,232.2,326.6,205.2,359.9,205.2C359.7,205.2,359.7,205.2,359.9,205.2z M419.8,265.2v179.3c0,14.6-10.8,26.6-23.9,26.6
		c-13.3,0-23.9-11.9-23.9-26.6V265.2c0-19.6,9.4-36.9,23.9-47.9C410.3,228.1,419.8,245.7,419.8,265.2z"/>
</g>
</svg>
