<?xml version="1.0" encoding="utf-8"?>
<!-- Generator: Adobe Illustrator 24.3.0, SVG Export Plug-In . SVG Version: 6.00 Build 0)  -->
<svg version="1.1" id="Layer_1" xmlns="http://www.w3.org/2000/svg" xmlns:xlink="http://www.w3.org/1999/xlink" x="0px" y="0px"
	 viewBox="0 0 850.4 850.4" style="enable-background:new 0 0 850.4 850.4;" xml:space="preserve">
<style type="text/css">
	.st0{fill:#1D1D1B;}
</style>
<path class="st0" d="M302.8,643.1c-17.6,0-31.7-14-31.7-31.3s14.2-31.3,31.7-31.3h218.7l0,0c51.1-1.1,88-32.2,88.6-75.1l0,0h0.2
	c0-17.1-5.4-31.3-14.9-41.1c9.5-10.9,15.1-26.2,15.1-44v-15.8l0,0c-0.9-40.7-29-50.2-47.5-52l0,0l0,0c-0.5,0-0.7,0-1.1,0
	c-8.5-2.7-18.5-8.9-18.5-23.8c0-13.6,7.4-27.1,23.4-29.6l0,0c0.9,0,5-0.9,5-0.9c23.2-4.2,38-23.6,38.7-50.9l0,0c0-0.4,0-3.1,0-3.1
	c-1.6-38.9-34.2-70-74-70c-25.9,0-48.6,12.9-62.1,32.4c-17.1-20.9-43.4-34.2-72.7-34.2c-12.8,0-25,2.4-36,7.1
	c-11-4.7-23.2-7.1-36-7.1c-49.5,0-90.2,38.2-93.6,86.4H236V496h33.7V264.9c0-32.7,27-59.3,60.1-59.3c0,0,0,0,0.2,0
	c-13.5,16-21.8,36.7-21.8,59.3v180.2c0,32.9,25.9,59.6,57.6,59.6s57.6-26.7,57.6-59.6V264.9c0-22.4-8.1-43.1-21.8-59.3
	c0,0,0,0,0.2,0c33.1,0,60.1,26.7,60.1,59.3v220.9h33.8V247.4c0-22,18.5-39.8,41-39.8c22,0,39.8,17.6,40.3,39.1
	c-0.2,6.9-2.2,16.7-11,18.7c-32.4,2.9-56.2,28.9-56.2,62.9c0,32.2,23.9,56,58.5,58.9c5.9,2.2,8.5,6.9,8.8,17.3l0,0v15.8
	c0,13.1-5.6,28.7-21.4,28.7h-17.3v33.3h17.8c9.5,0,20.2,2.4,20.9,20.7c0,0.2,0,0.7,0,0.9c0,30-28.8,43.3-57.4,43.3l0,0l0,0H303
	c-36.2,0-65.5,29.1-65.5,64.7c0,35.8,29.5,64.7,65.5,64.7h311.4v-33.3H302.8z M389.9,264.9v180.2c0,14.4-10.8,26.2-23.9,26.2
	s-23.9-11.8-23.9-26.2v-180v-0.2c0-19.3,9.4-36.4,23.9-47.3C380.6,228.5,389.9,245.6,389.9,264.9z M576.8,504.9L576.8,504.9
	c0-0.2,0-0.4,0-0.7c0-0.4,0-0.7,0-1.1C576.8,503.8,576.8,504.3,576.8,504.9z"/>
</svg>
