<?xml version="1.0" encoding="utf-8"?>
<!-- Generator: Adobe Illustrator 24.3.0, SVG Export Plug-In . SVG Version: 6.00 Build 0)  -->
<svg version="1.1" id="Layer_1" xmlns="http://www.w3.org/2000/svg" xmlns:xlink="http://www.w3.org/1999/xlink" x="0px" y="0px"
	 viewBox="0 0 850.4 850.4" style="enable-background:new 0 0 850.4 850.4;" xml:space="preserve">
<style type="text/css">
	.st0{fill:none;stroke:#1D1D1B;stroke-width:33.75;stroke-miterlimit:10;}
	.st1{fill:#1D1D1B;}
</style>
<path class="st0" d="M425.2,680"/>
<path class="st1" d="M652.6,178.3h-33.8v311c0,16.8-14.2,30.3-31.7,30.3s-31.7-13.5-31.7-30.3V235.4c0.5-16.3-6.1-32-18-43.8
	c-12.4-12.2-29.9-19.1-47.9-19.1c-24.3,0-45.7,12.2-57.4,30.5c-17.1-18-42.1-29.4-69.5-29.4c-12.8,0-25,2.4-36,6.9
	c-11-4.5-23.2-6.9-36-6.9c-50.4,0-91.6,38-93.6,85.7l0,0v287.2h33.8V263.1c0-31.6,27-57.4,60.1-57.4c0,0,0,0,0.2,0
	c-11.9,13.5-19.6,30.7-21.4,49.4l-0.4,240.2c0,31.8,25.9,57.6,57.6,57.6s57.6-25.8,57.6-57.6V263.1c0-21.7-8.1-41.7-21.8-57.4
	c0,0,0,0,0.2,0c33.1,0,60.1,25.8,60.1,57.4v282.5v0.2h33.8v-0.2V235.4c0-17,14.9-30.7,33.1-30.7c9.2,0,17.5,3.4,23.8,9.5
	c5.9,5.6,8.8,12.9,8.5,20.6v254.6c0,26,16.6,48.3,40.5,57.8c-2,4.9-3.2,21.5-3.2,21.5c0,24.3,20.7,44,46.1,44
	c4.3,0,8.3-0.6,12.4-1.7v7.5c0,6.7-5.6,12-12.4,12s-12.4-5.4-12.4-12h-33.8c0,24.5,20.7,44.3,46.1,44.3c25.4,0,46.1-20,46.1-44.3
	v-60.6h-0.5c-1.4-10.5-6.8-20-14.4-27.1c10.3-11.2,16.6-25.6,16.6-41.7V178.3H652.6z M350.2,263.1v232.2c0,14-10.8,25.3-23.9,25.3
	c-13,0-23.9-11.4-23.9-25.3V263.1c0-18.7,9.4-35.2,23.9-45.8C340.9,227.9,350.2,244.4,350.2,263.1z M604.9,580.4
	c-6.8,0-12.4-5.4-12.4-11.8v-5.4c0-6.4,5.6-11.8,12.4-11.8s12.4,5.4,12.4,11.8v5.4C617.2,575.3,611.6,580.4,604.9,580.4z"/>
</svg>
