<?xml version="1.0" encoding="utf-8"?>
<!-- Generator: Adobe Illustrator 24.3.0, SVG Export Plug-In . SVG Version: 6.00 Build 0)  -->
<svg version="1.1" id="Layer_1" xmlns="http://www.w3.org/2000/svg" xmlns:xlink="http://www.w3.org/1999/xlink" x="0px" y="0px"
	 viewBox="0 0 850.4 850.4" style="enable-background:new 0 0 850.4 850.4;" xml:space="preserve">
<style type="text/css">
	.st0{fill:#1D1D1B;}
</style>
<path class="st0" d="M658.3,242.9c-1.1-37.2-33.3-67.1-72.9-67.1c-38.9,0-70.6,28.8-72.9,65.1h-0.2v272.5h-61.4l0.5-248.8
	c0-49.1-42.1-89-93.8-89c-12.8,0-25,2.3-36,6.8c-11-4.5-23.2-6.8-36-6.8c-50.4,0-91.6,37.8-93.6,85.2l0,0v285.5h33.8V264.7
	c0-31.4,27-57,60.1-57c0,0,0,0,0.2,0c-11.9,13.5-19.6,30.5-21.4,49.1l-0.4,238.7c0,31.6,25.9,57.2,57.6,57.2s57.6-25.6,57.6-57.2
	V264.7c0-21.6-8.1-41.4-21.8-57c0,0,0,0,0.2,0c33.1,0,60.1,25.6,60.1,57l-0.4,280.8h150.7c-1.8,4.7-2.9,20.5-2.9,20.5
	c0,24.1,20.7,43.8,46.1,43.8c4.3,0,8.3-0.6,12.4-1.7v7.5c0,6.6-5.6,12-12.4,12s-12.4-5.3-12.4-12h-33.8c0,24.3,20.7,44,46.1,44
	s46.1-19.9,46.1-44v-60.2h-0.5c-0.5-3.4-1.4-6.8-2.5-9.8h4L658.3,242.9L658.3,242.9z M345.8,264.7v230.8c0,13.9-10.8,25.2-23.9,25.2
	c-13.1,0-23.9-11.3-23.9-25.2V264.7c0-18.6,9.5-35,23.9-45.5C336.3,229.7,345.8,246.1,345.8,264.7z M611.3,578
	c-6.8,0-12.4-5.3-12.4-11.7v-5.3c0-6.4,5.6-11.7,12.4-11.7s12.4,5.3,12.4,11.7v5.3C623.6,572.6,618,578,611.3,578z M624.8,513.5
	h-78.5V244.8c0-20.3,17.5-36.9,39.1-36.9s39.1,16.4,39.1,36.9v268.6L624.8,513.5L624.8,513.5z"/>
</svg>
