<?xml version="1.0" encoding="utf-8"?>
<!-- Generator: Adobe Illustrator 24.3.0, SVG Export Plug-In . SVG Version: 6.00 Build 0)  -->
<svg version="1.1" id="Layer_1" xmlns="http://www.w3.org/2000/svg" xmlns:xlink="http://www.w3.org/1999/xlink" x="0px" y="0px"
	 viewBox="0 0 850.4 850.4" style="enable-background:new 0 0 850.4 850.4;" xml:space="preserve">
<style type="text/css">
	.st0{fill:#1D1D1B;}
</style>
<path class="st0" d="M425.5,172.1c-41.6,0-75.6,29.5-75.6,65.5v309.2h33.8V237.4c0-17.1,19.1-31.7,41.9-31.7
	c22.7,0,41.2,14.2,41.2,31.7v85.1c0,12.1-3.8,28.1-20.9,28.1c-9,0-29,0.2-29,0.2v34c0,0,20.5,0,29,0c15.3,0,20.9,16.2,20.9,28.4
	v185.4c-4.7-1.8-9.7-2.7-14.9-2.7h-58.7c-23.9,0-43.2,19.4-43.2,43.2c0,23.9,19.4,43.2,43.2,43.2h58.7c42.1,0,48.6-37.1,48.6-61.4
	V413.3c0-18.2-6.8-34.2-18-45.2c11.2-11,18-26.8,18-45.2v-85.3C500.5,201.6,466.7,172.1,425.5,172.1z M383.5,639
	c0-5.2,4.3-9.5,9.4-9.5h58.7c5.2,0,9.5,4.3,9.5,9.5c0,3.6-2,6.8-5.2,8.3c-3.8,0.9-63,1.1-63,1.1C387.7,648.2,383.5,644.2,383.5,639z
	"/>
</svg>
