<?xml version="1.0" encoding="utf-8"?>
<!-- Generator: Adobe Illustrator 24.3.0, SVG Export Plug-In . SVG Version: 6.00 Build 0)  -->
<svg version="1.1" id="Layer_1" xmlns="http://www.w3.org/2000/svg" xmlns:xlink="http://www.w3.org/1999/xlink" x="0px" y="0px"
	 viewBox="0 0 850.4 850.4" style="enable-background:new 0 0 850.4 850.4;" xml:space="preserve">
<style type="text/css">
	.st0{fill:#1D1D1B;}
</style>
<path class="st0" d="M512,179.3v335.5h-61.2V236.8h-0.2c-2-37-34-66.4-72.9-66.4c-39.6,0-71.8,30.5-72.9,68.4l0,0v2v306.5h33.8
	V240.7c0-20.7,17.6-37.7,39.1-37.7s39.1,16.8,39.1,37.7v306.5h128.7V179.1H512V179.3z"/>
</svg>
