<?xml version="1.0" encoding="utf-8"?>
<!-- Generator: Adobe Illustrator 24.3.0, SVG Export Plug-In . SVG Version: 6.00 Build 0)  -->
<svg version="1.1" id="Layer_1" xmlns="http://www.w3.org/2000/svg" xmlns:xlink="http://www.w3.org/1999/xlink" x="0px" y="0px"
	 viewBox="0 0 850.4 850.4" style="enable-background:new 0 0 850.4 850.4;" xml:space="preserve">
<style type="text/css">
	.st0{fill:#1D1D1B;}
</style>
<path class="st0" d="M469.3,353.1c0,24.3-19.8,44.1-44.1,44.1c-24.3,0-44.1-19.8-44.1-44.1V147.9h-33.8v205.4
	c0,43,34.9,77.9,77.8,77.9c16.4,0,31.7-5.2,44.1-13.7v74.5c0,24.3-19.8,44.1-44.1,44.1c-24.3,0-44.1-19.8-44.1-44.1v-33.5h-33.8
	v33.5c0,43,34.9,77.8,77.9,77.8s77.9-34.9,77.9-77.8v-344h-33.8L469.3,353.1z"/>
</svg>
