<?xml version="1.0" encoding="utf-8"?>
<!-- Generator: Adobe Illustrator 24.3.0, SVG Export Plug-In . SVG Version: 6.00 Build 0)  -->
<svg version="1.1" id="Layer_1" xmlns="http://www.w3.org/2000/svg" xmlns:xlink="http://www.w3.org/1999/xlink" x="0px" y="0px"
	 viewBox="0 0 850.4 850.4" style="enable-background:new 0 0 850.4 850.4;" xml:space="preserve">
<style type="text/css">
	.st0{fill:#1D1D1B;}
</style>
<g>
	<path class="st0" d="M549.4,645h-49.3v-45.1c0-23.3-18.9-42.2-42.3-42.2s-42.3,18.9-42.3,42.2v78.7h33.8v-78.7
		c0-4.9,3.8-8.9,8.6-8.9s8.5,4,8.5,8.9v78.7h116.8V515.5h-33.8V645z"/>
	<path class="st0" d="M549.4,180.4v225.3c0,42-34.7,76.2-77.2,76.2c-4.5,0-9-0.4-13.3-1.1c18.7-19.6,30.1-46,30.1-75.1V236.6
		c0-34.9-28.6-63.1-63.9-63.1c-18.7,0-35.3,7.8-47,20.4c-11.7-12.4-28.4-20.4-47-20.4c-35.3,0-63.9,28.2-63.9,63.1v169.1
		c0,60.4,49.7,109.5,110.9,109.5c16.9,0,32.6-3.8,47-10.4c14.2,6.7,30.1,10.4,47,10.4c61.2,0,110.9-49.1,110.9-109.5V180.4H549.4z
		 M425.2,206.9c16.6,0,30.1,13.3,30.1,29.8v169.1c0,24.7-11.9,46.4-30.1,60.4c-18.2-14-30.1-35.8-30.1-60.4V236.6
		C395,220.2,408.5,206.9,425.2,206.9z M301,405.7V236.6c0-16.4,13.5-29.8,30.1-29.8s30.1,13.3,30.1,29.8v169.1
		c0,29.1,11.5,55.3,30.1,75.1c-4.3,0.7-8.8,1.1-13.3,1.1C335.6,482,301,447.7,301,405.7z"/>
</g>
</svg>
