<?xml version="1.0" encoding="utf-8"?>
<!-- Generator: Adobe Illustrator 24.3.0, SVG Export Plug-In . SVG Version: 6.00 Build 0)  -->
<svg version="1.1" id="Layer_1" xmlns="http://www.w3.org/2000/svg" xmlns:xlink="http://www.w3.org/1999/xlink" x="0px" y="0px"
	 viewBox="0 0 850.4 850.4" style="enable-background:new 0 0 850.4 850.4;" xml:space="preserve">
<style type="text/css">
	.st0{fill:#1D1D1B;}
</style>
<path class="st0" d="M490.7,309.1c0-36.2-29.5-65.5-65.5-65.5h-43.4v33.8h43.4c17.6,0,31.7,14.2,31.7,31.7
	c0,14.9-10.1,27.2-24.1,30.8c-7.4,0.4-49.9,0.2-49.9,0.2v33.8c0,0,43-0.2,49.9,0.5c12.8,2.9,24.1,16,24.1,30.8v241.6
	c0,17.6-14.2,31.7-31.7,31.7c-17.5,0-31.7-14.2-31.7-31.7V506.2h-33.8v140.6c0,36.2,29.5,65.5,65.5,65.5c35.1,0,63.7-27.7,65.5-62.3
	l0,0V401.3c-0.9-17.5-8.8-33.1-20.7-44.3C482.6,345.1,490.7,328.2,490.7,309.1z"/>
</svg>
