<?xml version="1.0" encoding="utf-8"?>
<!-- Generator: Adobe Illustrator 24.3.0, SVG Export Plug-In . SVG Version: 6.00 Build 0)  -->
<svg version="1.1" id="Layer_1" xmlns="http://www.w3.org/2000/svg" xmlns:xlink="http://www.w3.org/1999/xlink" x="0px" y="0px"
	 viewBox="0 0 850.4 850.4" style="enable-background:new 0 0 850.4 850.4;" xml:space="preserve">
<style type="text/css">
	.st0{fill:#1D1D1B;}
</style>
<g>
	<path class="st0" d="M534.1,526.2v112.7c0,8.8-6.1,16-13.5,16s-13.5-7.2-13.5-16v-44.3c0-39.1-29.9-70.9-66.8-70.9
		s-66.8,31.7-66.8,70.9l0.7,50.2c0,24.3,19.6,43.9,43.9,43.9c24.3,0,43.9-19.6,43.9-43.9v-16.6c0-24.3-19.6-43.9-43.9-43.9
		c-3.4,0-6.5,0.5-9.7,1.1c3.6-16.2,16.6-28.1,31.9-28.1c18.2,0,33.1,16.6,33.1,37.1v44.3c0,27.5,21.1,49.7,47.2,49.7
		c26.1,0,47.2-22.3,47.2-49.7V526L534.1,526.2L534.1,526.2z M418.2,618c5.6,0,10.1,4.5,10.1,10.1v16.6c0,5.6-4.5,10.1-10.1,10.1
		s-10.1-4.5-10.1-10.1v-16.6C408.1,622.5,412.6,618,418.2,618z"/>
	<path class="st0" d="M408.5,460.9h0.2V272.8c0-36.7,28.1-66.6,62.6-66.6s62.5,29.9,62.5,66.6v12.8c-7.6-3.6-16-5.6-24.8-5.6
		c-31.9,0-57.8,25.4-58.7,57.2l0,0v121.3c0,32.4,26.3,58.7,58.7,58.7s58.7-26.3,58.7-58.7l-0.2-185.6c0-55.4-43.2-100.4-96.3-100.4
		s-96.3,45-96.3,100.4v182.5c0,7.2-2.7,14.2-7.9,19.6c-5.6,5.6-13,8.8-21.1,8.8c-16.4,0-29.7-13.3-29.7-29.7V177.2h-33.8V454
		c0,35.1,28.6,63.4,63.4,63.4c17.3,0,33.3-6.8,45.2-19.1C401.3,487.9,407.2,474.9,408.5,460.9z M534.3,458.5c0,13.7-11.2,25-25,25
		c-13.7,0-25-11.2-25-25V339c0-13.9,11.2-25.2,25-25.2c13.7,0,25,11.2,25,25.2V458.5z"/>
</g>
</svg>
